query,EXEC_TIME,NANS
Q01,9964,72485
Q01,8818,72485
Q01,8752,72485
Q01,8749,72485
Q01,8718,72485
Q02,1086,24365
Q02,1019,24365
Q02,1011,24365
Q02,1039,24365
Q02,1033,24365
Q03,TIMEOUT,TIMEOUT
Q04,9903,361566
Q04,9795,361566
Q04,9690,361566
Q04,9767,361566
Q04,9890,361566
Q05,,
Q05,,
Q05,,
Q05,,
Q05,,
Q06,,
Q06,,
Q06,,
Q06,,
Q06,,
Q07,,
Q07,,
Q07,,
Q07,,
Q07,,
Q08,16192,42099
Q08,15956,42099
Q08,15901,42099
Q08,15897,42099
Q08,15895,42099
Q09,,
Q09,,
Q09,,
Q09,,
Q09,,
Q10,,
Q10,,
Q10,,
Q10,,
Q10,,
Q11,171344,957323
Q11,171186,957323
Q11,169833,957323
Q11,166866,957323
Q11,167380,957323
Q12,18137,413879
Q12,17671,413879
Q12,17788,413879
Q12,17536,413879
Q12,17538,413879
Q13,,
Q13,,
Q13,,
Q13,,
Q13,,
Q14,8464,16345
Q14,8423,16345
Q14,8337,16345
Q14,8426,16345
Q14,8408,16345
Q15,35266,460217
Q15,33280,460217
Q15,33281,460217
Q15,33660,460217
Q15,33100,460217
