query,EXEC_TIME,NANS,NREF,TREF,NPRUN,TPRUN,TOTAL
Q01,1351,72485,1,0,0,0,1353
Q01,1314,72485,1,0,0,0,1316
Q01,1264,72485,1,0,0,0,1266
Q01,1135,72485,1,1,0,0,1136
Q01,1326,72485,1,1,0,0,1328
Q02,59,24365,1,0,0,0,61
Q02,66,24365,1,1,0,0,67
Q02,66,24365,1,0,0,0,67
Q02,72,24365,1,1,0,0,73
Q02,66,24365,1,0,0,0,67
Q03,151670,96341833,1,1,0,0,151671
Q03,149709,96341833,1,1,0,0,149710
Q03,141779,96341833,1,1,0,0,141780
Q03,158909,96341833,1,0,0,0,158910
Q03,147865,96341833,1,0,0,0,147866
Q04,949,361566,1,0,0,0,950
Q04,954,361566,1,1,0,0,955
Q04,959,361566,1,1,0,0,960
Q04,946,361566,1,0,0,0,947
Q04,943,361566,1,1,0,0,944
Q05,1129,4091,1,1,0,0,1130
Q05,1128,4091,1,1,0,0,1129
Q05,1127,4091,1,1,0,0,1128
Q05,1133,4091,1,1,0,0,1134
Q05,1128,4091,1,0,0,0,1129
Q06,1268,10,1,0,0,0,1269
Q06,1193,10,1,0,0,0,1194
Q06,1192,10,1,0,0,0,1193
Q06,1112,10,1,0,0,0,1113
Q06,1153,10,1,0,0,0,1154
Q07,1201,138,1,0,0,0,1202
Q07,1167,138,1,0,0,0,1169
Q07,1205,138,1,0,0,0,1206
Q07,1174,138,1,0,0,0,1175
Q07,1205,138,1,0,0,0,1205
Q08,1332,42099,1,0,0,0,1333
Q08,1332,42099,1,1,0,0,1333
Q08,1328,42099,1,0,0,0,1329
Q08,1316,42099,1,1,0,0,1317
Q08,1337,42099,1,0,0,0,1338
Q09,17585,1527164,1,1,0,0,17586
Q09,17454,1527164,1,0,0,0,17455
Q09,17522,1527164,1,0,0,0,17523
Q09,17501,1527164,1,0,0,0,17502
Q09,17458,1527164,1,0,0,0,17459
Q10,22344,3093186,1,0,0,0,22345
Q10,20782,3093186,1,0,0,0,20784
Q10,21527,3093186,1,1,0,0,21529
Q10,22198,3093186,1,0,0,0,22199
Q10,20522,3093186,1,0,0,0,20522
Q11,40012,957323,1,0,0,0,40013
Q11,40272,957323,1,1,0,0,40273
Q11,39881,957323,1,0,0,0,39882
Q11,39960,957323,1,0,0,0,39962
Q11,39932,957323,1,0,0,0,39933
Q12,3750,413879,1,0,0,0,3750
Q12,3779,413879,1,1,0,0,3780
Q12,3746,413879,1,0,0,0,3748
Q12,3717,413879,1,0,0,0,3718
Q12,3746,413879,1,1,0,0,3747
Q13,3643,408625,1,1,0,0,3644
Q13,3615,408625,1,0,0,0,3615
Q13,3643,408625,1,0,0,0,3643
Q13,3659,408625,1,0,0,0,3660
Q13,3676,408625,1,1,0,0,3677
Q14,21101,16345,1,1,0,0,21102
Q14,21101,16345,1,0,0,0,21102
Q14,20992,16345,1,0,0,0,20992
Q14,21168,16345,1,0,0,0,21169
Q14,21101,16345,1,0,0,0,21102
Q15,2389,460217,1,0,0,0,2391
Q15,2397,460217,1,0,0,0,2399
Q15,2386,460217,1,0,0,0,2388
Q15,2393,460217,1,0,0,0,2395
Q15,2387,460217,1,0,0,0,2389
