query,EXEC_TIME,NANS
Q01,1192,72485
Q01,986,72485
Q01,958,72485
Q01,958,72485
Q01,983,72485
Q02,245,24365
Q02,223,24365
Q02,221,24365
Q02,220,24365
Q02,220,24365
Q03,TIMEOUT,TIMEOUT
Q04,4744,361566
Q04,4699,361566
Q04,4771,361566
Q04,4687,361566
Q04,4775,361566
Q05,2192,4091
Q05,2118,4091
Q05,2156,4091
Q05,2165,4091
Q05,2155,4091
Q06,42,10
Q06,2,10
Q06,2,10
Q06,2,10
Q06,2,10
Q07,541315,138
Q07,546394,138
Q07,534289,138
Q07,547734,138
Q07,541304,138
Q08,15404,42099
Q08,15304,42099
Q08,15314,42099
Q08,15316,42099
Q08,15320,42099
Q09,417015,1527164
Q09,415960,1527164
Q09,414584,1527164
Q09,415394,1527164
Q09,415612,1527164
Q10,TIMEOUT,TIMEOUT
Q11,76790,957323
Q11,77336,957323
Q11,77455,957323
Q11,76732,957323
Q11,77148,957323
Q12,18158,413879
Q12,17840,413879
Q12,17913,413879
Q12,17831,413879
Q12,17947,413879
Q13,219281,408625
Q13,219198,408625
Q13,219169,408625
Q13,219179,408625
Q13,219172,408625
Q14,6889,16345
Q14,6840,16345
Q14,6834,16345
Q14,6836,16345
Q14,6834,16345
Q15,5710,460217
Q15,5616,460217
Q15,5264,460217
Q15,5154,460217
Q15,5211,460217
