Q01

56
WITH uns_t AS  ((SELECT DISTINCT tt_1.s AS s,4885219 AS p,22552132 AS o FROM t_22552132 AS tt_1 ) UNION 
(SELECT DISTINCT tt_1.s AS s,4885219 AS p,3492502 AS o FROM t_3492502 AS tt_1 ) UNION 
(SELECT DISTINCT tt_1.s AS s,4885219 AS p,13890787 AS o FROM t_13890787 AS tt_1 ) UNION 
(SELECT DISTINCT tt_1.s AS s,4885219 AS p,3849344 AS o FROM t_3849344 AS tt_1 ) UNION 
(SELECT DISTINCT tt_1.s AS s,4885219 AS p,18385456 AS o FROM t_18385456 AS tt_1 ) UNION 
(SELECT DISTINCT tt_1.s AS s,4885219 AS p,3811189 AS o FROM t_3811189 AS tt_1 ) UNION 
(SELECT DISTINCT tt_1.s AS s,4885219 AS p,14336006 AS o FROM t_14336006 AS tt_1 ) UNION 
(SELECT DISTINCT tt_1.s AS s,4885219 AS p,21986346 AS o FROM t_21986346 AS tt_1 ) UNION 
(SELECT DISTINCT tt_1.s AS s,4885219 AS p,11571344 AS o FROM t_11571344 AS tt_1 ) UNION 
(SELECT DISTINCT tt_1.s AS s,4885219 AS p,12734835 AS o FROM t_12734835 AS tt_1 ) UNION 
(SELECT DISTINCT tt_1.s AS s,4885219 AS p,739164 AS o FROM t_739164 AS tt_1 ) UNION 
(SELECT DISTINCT tt_1.s AS s,4885219 AS p,2511159 AS o FROM t_2511159 AS tt_1 ) UNION 
(SELECT DISTINCT tt_1.s AS s,4885219 AS p,1291759 AS o FROM t_1291759 AS tt_1 ) UNION 
(SELECT DISTINCT tt_1.s AS s,4885219 AS p,1479080 AS o FROM t_1479080 AS tt_1 ) UNION 
(SELECT DISTINCT tt_1.s AS s,4885219 AS p,8420053 AS o FROM t_8420053 AS tt_1 ) UNION 
(SELECT DISTINCT tt_1.s AS s,4885219 AS p,1372787 AS o FROM t_1372787 AS tt_1 ) UNION 
(SELECT DISTINCT tt_1.s AS s,4885219 AS p,13372933 AS o FROM t_13372933 AS tt_1 ) UNION 
(SELECT DISTINCT tt_1.s AS s,4885219 AS p,21059061 AS o FROM t_21059061 AS tt_1 ) UNION 
(SELECT DISTINCT tt_1.s AS s,4885219 AS p,21637133 AS o FROM t_21637133 AS tt_1 ) UNION 
(SELECT DISTINCT tt_1.s AS s,4885219 AS p,4057117 AS o FROM t_4057117 AS tt_1 ) UNION 
(SELECT DISTINCT tt_1.s AS s,4885219 AS p,23915985 AS o FROM t_23915985 AS tt_1 ) UNION 
(SELECT DISTINCT tt_1.s AS s,4885219 AS p,17619698 AS o FROM t_17619698 AS tt_1 ) UNION 
(SELECT DISTINCT tt_1.s AS s,4885219 AS p,22507034 AS o FROM t_22507034 AS tt_1 ) UNION 
(SELECT DISTINCT tt_1.s AS s,4885219 AS p,26047100 AS o FROM t_26047100 AS tt_1 ) UNION 
(SELECT DISTINCT tt_1.s AS s,4885219 AS p,25234334 AS o FROM t_25234334 AS tt_1 ) UNION 
(SELECT DISTINCT tt_1.s AS s,4885219 AS p,24830358 AS o FROM t_24830358 AS tt_1 ) UNION 
(SELECT DISTINCT tt_1.s AS s,4885219 AS p,12718960 AS o FROM t_12718960 AS tt_1 ) UNION 
(SELECT DISTINCT tt_1.s AS s,4885219 AS p,3921200 AS o FROM t_3921200 AS tt_1 ) UNION 
(SELECT DISTINCT tt_1.s AS s,4885219 AS p,1802885 AS o FROM t_1802885 AS tt_1 ) UNION 
(SELECT DISTINCT tt_1.s AS s,4885219 AS p,8007989 AS o FROM t_8007989 AS tt_1 ) UNION 
(SELECT DISTINCT tt_1.s AS s,4885219 AS p,8727249 AS o FROM t_8727249 AS tt_1 ) UNION 
(SELECT DISTINCT tt_1.s AS s,4885219 AS p,21648803 AS o FROM t_21648803 AS tt_1 ) UNION 
(SELECT DISTINCT tt_1.s AS s,4885219 AS p,2299993 AS o FROM t_2299993 AS tt_1 ) UNION 
(SELECT DISTINCT tt_1.s AS s,4885219 AS p,21996890 AS o FROM t_21996890 AS tt_1 ) UNION 
(SELECT DISTINCT tt_1.s AS s,4885219 AS p,16367420 AS o FROM t_16367420 AS tt_1 ) UNION 
(SELECT DISTINCT tt_1.s AS s,4885219 AS p,22142086 AS o FROM t_22142086 AS tt_1 ) UNION 
(SELECT DISTINCT tt_1.s AS s,4885219 AS p,22651863 AS o FROM t_22651863 AS tt_1 ) UNION 
(SELECT DISTINCT tt_1.s AS s,4885219 AS p,18220402 AS o FROM t_18220402 AS tt_1 ) UNION 
(SELECT DISTINCT tt_1.s AS s,4885219 AS p,7574933 AS o FROM t_7574933 AS tt_1 ) UNION 
(SELECT DISTINCT tt_1.s AS s,4885219 AS p,3488252 AS o FROM t_3488252 AS tt_1 ) UNION 
(SELECT DISTINCT tt_1.s AS s,4885219 AS p,2986219 AS o FROM t_2986219 AS tt_1 ) UNION 
(SELECT DISTINCT tt_1.s AS s,4885219 AS p,15549960 AS o FROM t_15549960 AS tt_1 ) UNION 
(SELECT DISTINCT tt_1.s AS s,4885219 AS p,16102024 AS o FROM t_16102024 AS tt_1 ) UNION 
(SELECT DISTINCT tt_1.s AS s,4885219 AS p,22556651 AS o FROM t_22556651 AS tt_1 ) UNION 
(SELECT DISTINCT tt_1.s AS s,4885219 AS p,22676495 AS o FROM t_22676495 AS tt_1 )
) SELECT DISTINCT pt191.s AS att_X,pt191.o AS att_Y,pt193.o AS att_Z FROM uns_t AS pt191,t_16328923 AS pt192,t_8759755 AS pt193 WHERE pt193.s=pt191.s AND pt193.s=pt192.s AND pt191.s=pt192.s
Q02

0
WITH uns_t AS  ((SELECT DISTINCT tt_1.s AS s,4885219 AS p,22552132 AS o FROM t_22552132 AS tt_1 ) UNION 
(SELECT DISTINCT tt_1.s AS s,4885219 AS p,3492502 AS o FROM t_3492502 AS tt_1 ) UNION 
(SELECT DISTINCT tt_1.s AS s,4885219 AS p,13890787 AS o FROM t_13890787 AS tt_1 ) UNION 
(SELECT DISTINCT tt_1.s AS s,4885219 AS p,3849344 AS o FROM t_3849344 AS tt_1 ) UNION 
(SELECT DISTINCT tt_1.s AS s,4885219 AS p,18385456 AS o FROM t_18385456 AS tt_1 ) UNION 
(SELECT DISTINCT tt_1.s AS s,4885219 AS p,3811189 AS o FROM t_3811189 AS tt_1 ) UNION 
(SELECT DISTINCT tt_1.s AS s,4885219 AS p,14336006 AS o FROM t_14336006 AS tt_1 ) UNION 
(SELECT DISTINCT tt_1.s AS s,4885219 AS p,21986346 AS o FROM t_21986346 AS tt_1 ) UNION 
(SELECT DISTINCT tt_1.s AS s,4885219 AS p,11571344 AS o FROM t_11571344 AS tt_1 ) UNION 
(SELECT DISTINCT tt_1.s AS s,4885219 AS p,12734835 AS o FROM t_12734835 AS tt_1 ) UNION 
(SELECT DISTINCT tt_1.s AS s,4885219 AS p,739164 AS o FROM t_739164 AS tt_1 ) UNION 
(SELECT DISTINCT tt_1.s AS s,4885219 AS p,2511159 AS o FROM t_2511159 AS tt_1 ) UNION 
(SELECT DISTINCT tt_1.s AS s,4885219 AS p,1291759 AS o FROM t_1291759 AS tt_1 ) UNION 
(SELECT DISTINCT tt_1.s AS s,4885219 AS p,1479080 AS o FROM t_1479080 AS tt_1 ) UNION 
(SELECT DISTINCT tt_1.s AS s,4885219 AS p,8420053 AS o FROM t_8420053 AS tt_1 ) UNION 
(SELECT DISTINCT tt_1.s AS s,4885219 AS p,1372787 AS o FROM t_1372787 AS tt_1 ) UNION 
(SELECT DISTINCT tt_1.s AS s,4885219 AS p,13372933 AS o FROM t_13372933 AS tt_1 ) UNION 
(SELECT DISTINCT tt_1.s AS s,4885219 AS p,21059061 AS o FROM t_21059061 AS tt_1 ) UNION 
(SELECT DISTINCT tt_1.s AS s,4885219 AS p,21637133 AS o FROM t_21637133 AS tt_1 ) UNION 
(SELECT DISTINCT tt_1.s AS s,4885219 AS p,4057117 AS o FROM t_4057117 AS tt_1 ) UNION 
(SELECT DISTINCT tt_1.s AS s,4885219 AS p,23915985 AS o FROM t_23915985 AS tt_1 ) UNION 
(SELECT DISTINCT tt_1.s AS s,4885219 AS p,17619698 AS o FROM t_17619698 AS tt_1 ) UNION 
(SELECT DISTINCT tt_1.s AS s,4885219 AS p,22507034 AS o FROM t_22507034 AS tt_1 ) UNION 
(SELECT DISTINCT tt_1.s AS s,4885219 AS p,26047100 AS o FROM t_26047100 AS tt_1 ) UNION 
(SELECT DISTINCT tt_1.s AS s,4885219 AS p,25234334 AS o FROM t_25234334 AS tt_1 ) UNION 
(SELECT DISTINCT tt_1.s AS s,4885219 AS p,24830358 AS o FROM t_24830358 AS tt_1 ) UNION 
(SELECT DISTINCT tt_1.s AS s,4885219 AS p,12718960 AS o FROM t_12718960 AS tt_1 ) UNION 
(SELECT DISTINCT tt_1.s AS s,4885219 AS p,3921200 AS o FROM t_3921200 AS tt_1 ) UNION 
(SELECT DISTINCT tt_1.s AS s,4885219 AS p,1802885 AS o FROM t_1802885 AS tt_1 ) UNION 
(SELECT DISTINCT tt_1.s AS s,4885219 AS p,8007989 AS o FROM t_8007989 AS tt_1 ) UNION 
(SELECT DISTINCT tt_1.s AS s,4885219 AS p,8727249 AS o FROM t_8727249 AS tt_1 ) UNION 
(SELECT DISTINCT tt_1.s AS s,4885219 AS p,21648803 AS o FROM t_21648803 AS tt_1 ) UNION 
(SELECT DISTINCT tt_1.s AS s,4885219 AS p,2299993 AS o FROM t_2299993 AS tt_1 ) UNION 
(SELECT DISTINCT tt_1.s AS s,4885219 AS p,21996890 AS o FROM t_21996890 AS tt_1 ) UNION 
(SELECT DISTINCT tt_1.s AS s,4885219 AS p,16367420 AS o FROM t_16367420 AS tt_1 ) UNION 
(SELECT DISTINCT tt_1.s AS s,4885219 AS p,22142086 AS o FROM t_22142086 AS tt_1 ) UNION 
(SELECT DISTINCT tt_1.s AS s,4885219 AS p,22651863 AS o FROM t_22651863 AS tt_1 ) UNION 
(SELECT DISTINCT tt_1.s AS s,4885219 AS p,18220402 AS o FROM t_18220402 AS tt_1 ) UNION 
(SELECT DISTINCT tt_1.s AS s,4885219 AS p,7574933 AS o FROM t_7574933 AS tt_1 ) UNION 
(SELECT DISTINCT tt_1.s AS s,4885219 AS p,3488252 AS o FROM t_3488252 AS tt_1 ) UNION 
(SELECT DISTINCT tt_1.s AS s,4885219 AS p,2986219 AS o FROM t_2986219 AS tt_1 ) UNION 
(SELECT DISTINCT tt_1.s AS s,4885219 AS p,15549960 AS o FROM t_15549960 AS tt_1 ) UNION 
(SELECT DISTINCT tt_1.s AS s,4885219 AS p,16102024 AS o FROM t_16102024 AS tt_1 ) UNION 
(SELECT DISTINCT tt_1.s AS s,4885219 AS p,22556651 AS o FROM t_22556651 AS tt_1 ) UNION 
(SELECT DISTINCT tt_1.s AS s,4885219 AS p,22676495 AS o FROM t_22676495 AS tt_1 )
) SELECT DISTINCT pt578.s AS att_X,pt578.o AS att_W,pt579.o AS att_Y,pt580.o AS att_Z FROM uns_t AS pt578,t_2486984 AS pt579,t_11291713 AS pt580,t_22117849 AS pt581 WHERE pt581.s=pt578.s AND pt581.s=pt579.s AND pt578.s=pt579.s AND pt579.o=pt580.s AND pt581.o=pt580.o
Q03

1
WITH uns_t AS  ((SELECT DISTINCT tt_1.s AS s,4885219 AS p,22552132 AS o FROM t_22552132 AS tt_1 ) UNION 
(SELECT DISTINCT tt_1.s AS s,4885219 AS p,3492502 AS o FROM t_3492502 AS tt_1 ) UNION 
(SELECT DISTINCT tt_1.s AS s,4885219 AS p,13890787 AS o FROM t_13890787 AS tt_1 ) UNION 
(SELECT DISTINCT tt_1.s AS s,4885219 AS p,3849344 AS o FROM t_3849344 AS tt_1 ) UNION 
(SELECT DISTINCT tt_1.s AS s,4885219 AS p,18385456 AS o FROM t_18385456 AS tt_1 ) UNION 
(SELECT DISTINCT tt_1.s AS s,4885219 AS p,3811189 AS o FROM t_3811189 AS tt_1 ) UNION 
(SELECT DISTINCT tt_1.s AS s,4885219 AS p,14336006 AS o FROM t_14336006 AS tt_1 ) UNION 
(SELECT DISTINCT tt_1.s AS s,4885219 AS p,21986346 AS o FROM t_21986346 AS tt_1 ) UNION 
(SELECT DISTINCT tt_1.s AS s,4885219 AS p,11571344 AS o FROM t_11571344 AS tt_1 ) UNION 
(SELECT DISTINCT tt_1.s AS s,4885219 AS p,12734835 AS o FROM t_12734835 AS tt_1 ) UNION 
(SELECT DISTINCT tt_1.s AS s,4885219 AS p,739164 AS o FROM t_739164 AS tt_1 ) UNION 
(SELECT DISTINCT tt_1.s AS s,4885219 AS p,2511159 AS o FROM t_2511159 AS tt_1 ) UNION 
(SELECT DISTINCT tt_1.s AS s,4885219 AS p,1291759 AS o FROM t_1291759 AS tt_1 ) UNION 
(SELECT DISTINCT tt_1.s AS s,4885219 AS p,1479080 AS o FROM t_1479080 AS tt_1 ) UNION 
(SELECT DISTINCT tt_1.s AS s,4885219 AS p,8420053 AS o FROM t_8420053 AS tt_1 ) UNION 
(SELECT DISTINCT tt_1.s AS s,4885219 AS p,1372787 AS o FROM t_1372787 AS tt_1 ) UNION 
(SELECT DISTINCT tt_1.s AS s,4885219 AS p,13372933 AS o FROM t_13372933 AS tt_1 ) UNION 
(SELECT DISTINCT tt_1.s AS s,4885219 AS p,21059061 AS o FROM t_21059061 AS tt_1 ) UNION 
(SELECT DISTINCT tt_1.s AS s,4885219 AS p,21637133 AS o FROM t_21637133 AS tt_1 ) UNION 
(SELECT DISTINCT tt_1.s AS s,4885219 AS p,4057117 AS o FROM t_4057117 AS tt_1 ) UNION 
(SELECT DISTINCT tt_1.s AS s,4885219 AS p,23915985 AS o FROM t_23915985 AS tt_1 ) UNION 
(SELECT DISTINCT tt_1.s AS s,4885219 AS p,17619698 AS o FROM t_17619698 AS tt_1 ) UNION 
(SELECT DISTINCT tt_1.s AS s,4885219 AS p,22507034 AS o FROM t_22507034 AS tt_1 ) UNION 
(SELECT DISTINCT tt_1.s AS s,4885219 AS p,26047100 AS o FROM t_26047100 AS tt_1 ) UNION 
(SELECT DISTINCT tt_1.s AS s,4885219 AS p,25234334 AS o FROM t_25234334 AS tt_1 ) UNION 
(SELECT DISTINCT tt_1.s AS s,4885219 AS p,24830358 AS o FROM t_24830358 AS tt_1 ) UNION 
(SELECT DISTINCT tt_1.s AS s,4885219 AS p,12718960 AS o FROM t_12718960 AS tt_1 ) UNION 
(SELECT DISTINCT tt_1.s AS s,4885219 AS p,3921200 AS o FROM t_3921200 AS tt_1 ) UNION 
(SELECT DISTINCT tt_1.s AS s,4885219 AS p,1802885 AS o FROM t_1802885 AS tt_1 ) UNION 
(SELECT DISTINCT tt_1.s AS s,4885219 AS p,8007989 AS o FROM t_8007989 AS tt_1 ) UNION 
(SELECT DISTINCT tt_1.s AS s,4885219 AS p,8727249 AS o FROM t_8727249 AS tt_1 ) UNION 
(SELECT DISTINCT tt_1.s AS s,4885219 AS p,21648803 AS o FROM t_21648803 AS tt_1 ) UNION 
(SELECT DISTINCT tt_1.s AS s,4885219 AS p,2299993 AS o FROM t_2299993 AS tt_1 ) UNION 
(SELECT DISTINCT tt_1.s AS s,4885219 AS p,21996890 AS o FROM t_21996890 AS tt_1 ) UNION 
(SELECT DISTINCT tt_1.s AS s,4885219 AS p,16367420 AS o FROM t_16367420 AS tt_1 ) UNION 
(SELECT DISTINCT tt_1.s AS s,4885219 AS p,22142086 AS o FROM t_22142086 AS tt_1 ) UNION 
(SELECT DISTINCT tt_1.s AS s,4885219 AS p,22651863 AS o FROM t_22651863 AS tt_1 ) UNION 
(SELECT DISTINCT tt_1.s AS s,4885219 AS p,18220402 AS o FROM t_18220402 AS tt_1 ) UNION 
(SELECT DISTINCT tt_1.s AS s,4885219 AS p,7574933 AS o FROM t_7574933 AS tt_1 ) UNION 
(SELECT DISTINCT tt_1.s AS s,4885219 AS p,3488252 AS o FROM t_3488252 AS tt_1 ) UNION 
(SELECT DISTINCT tt_1.s AS s,4885219 AS p,2986219 AS o FROM t_2986219 AS tt_1 ) UNION 
(SELECT DISTINCT tt_1.s AS s,4885219 AS p,15549960 AS o FROM t_15549960 AS tt_1 ) UNION 
(SELECT DISTINCT tt_1.s AS s,4885219 AS p,16102024 AS o FROM t_16102024 AS tt_1 ) UNION 
(SELECT DISTINCT tt_1.s AS s,4885219 AS p,22556651 AS o FROM t_22556651 AS tt_1 ) UNION 
(SELECT DISTINCT tt_1.s AS s,4885219 AS p,22676495 AS o FROM t_22676495 AS tt_1 )
) SELECT DISTINCT pt986.s AS att_Z,pt986.o AS att_W FROM t_14336006 AS pt984,t_21059061 AS pt985,uns_t AS pt986,t_2486984 AS pt987,t_2486984 AS pt988 WHERE pt984.s=pt987.s AND pt985.s=pt988.s AND pt986.s=pt988.o AND pt986.s=pt987.o AND pt988.o=pt987.o
Q04

0
WITH gen_t AS  ((SELECT DISTINCT tt_1.s AS s,4885219 AS p,22552132 AS o FROM t_22552132 AS tt_1 ) UNION 
(SELECT DISTINCT tt_1.s AS s,4885219 AS p,3492502 AS o FROM t_3492502 AS tt_1 ) UNION 
(SELECT DISTINCT tt_1.s AS s,4885219 AS p,13890787 AS o FROM t_13890787 AS tt_1 ) UNION 
(SELECT DISTINCT tt_1.s AS s,4885219 AS p,3849344 AS o FROM t_3849344 AS tt_1 ) UNION 
(SELECT DISTINCT tt_1.s AS s,4885219 AS p,18385456 AS o FROM t_18385456 AS tt_1 ) UNION 
(SELECT DISTINCT tt_1.s AS s,4885219 AS p,12734835 AS o FROM t_12734835 AS tt_1 ) UNION 
(SELECT DISTINCT tt_1.s AS s,4885219 AS p,2511159 AS o FROM t_2511159 AS tt_1 ) UNION 
(SELECT DISTINCT tt_1.s AS s,4885219 AS p,1291759 AS o FROM t_1291759 AS tt_1 ) UNION 
(SELECT DISTINCT tt_1.s AS s,20166987 AS p,tt_1.o AS o FROM t_20166987 AS tt_1 ) UNION 
(SELECT DISTINCT tt_1.s AS s,4885219 AS p,1479080 AS o FROM t_1479080 AS tt_1 ) UNION 
(SELECT DISTINCT tt_1.s AS s,11291713 AS p,tt_1.o AS o FROM t_11291713 AS tt_1 ) UNION 
(SELECT DISTINCT tt_1.s AS s,4885219 AS p,8420053 AS o FROM t_8420053 AS tt_1 ) UNION 
(SELECT DISTINCT tt_1.s AS s,6997397 AS p,tt_1.o AS o FROM t_6997397 AS tt_1 ) UNION 
(SELECT DISTINCT tt_1.s AS s,4885219 AS p,13372933 AS o FROM t_13372933 AS tt_1 ) UNION 
(SELECT DISTINCT tt_1.s AS s,683207 AS p,tt_1.o AS o FROM t_683207 AS tt_1 ) UNION 
(SELECT DISTINCT tt_1.s AS s,4885219 AS p,21059061 AS o FROM t_21059061 AS tt_1 ) UNION 
(SELECT DISTINCT tt_1.s AS s,4885219 AS p,21637133 AS o FROM t_21637133 AS tt_1 ) UNION 
(SELECT DISTINCT tt_1.s AS s,19388482 AS p,tt_1.o AS o FROM t_19388482 AS tt_1 ) UNION 
(SELECT DISTINCT tt_1.s AS s,4885219 AS p,4057117 AS o FROM t_4057117 AS tt_1 ) UNION 
(SELECT DISTINCT tt_1.s AS s,4885219 AS p,22507034 AS o FROM t_22507034 AS tt_1 ) UNION 
(SELECT DISTINCT tt_1.s AS s,4885219 AS p,26047100 AS o FROM t_26047100 AS tt_1 ) UNION 
(SELECT DISTINCT tt_1.s AS s,17292348 AS p,tt_1.o AS o FROM t_17292348 AS tt_1 ) UNION 
(SELECT DISTINCT tt_1.s AS s,4885219 AS p,24830358 AS o FROM t_24830358 AS tt_1 ) UNION 
(SELECT DISTINCT tt_1.s AS s,4885219 AS p,12718960 AS o FROM t_12718960 AS tt_1 ) UNION 
(SELECT DISTINCT tt_1.s AS s,13953271 AS p,tt_1.o AS o FROM t_13953271 AS tt_1 ) UNION 
(SELECT DISTINCT tt_1.s AS s,4885219 AS p,3921200 AS o FROM t_3921200 AS tt_1 ) UNION 
(SELECT DISTINCT tt_1.s AS s,9725923 AS p,tt_1.o AS o FROM t_9725923 AS tt_1 ) UNION 
(SELECT DISTINCT tt_1.s AS s,4885219 AS p,8007989 AS o FROM t_8007989 AS tt_1 ) UNION 
(SELECT DISTINCT tt_1.s AS s,4885219 AS p,2299993 AS o FROM t_2299993 AS tt_1 ) UNION 
(SELECT DISTINCT tt_1.s AS s,4885219 AS p,16367420 AS o FROM t_16367420 AS tt_1 ) UNION 
(SELECT DISTINCT tt_1.s AS s,4885219 AS p,22142086 AS o FROM t_22142086 AS tt_1 ) UNION 
(SELECT DISTINCT tt_1.s AS s,13424281 AS p,tt_1.o AS o FROM t_13424281 AS tt_1 ) UNION 
(SELECT DISTINCT tt_1.s AS s,2486984 AS p,tt_1.o AS o FROM t_2486984 AS tt_1 ) UNION 
(SELECT DISTINCT tt_1.s AS s,4885219 AS p,3488252 AS o FROM t_3488252 AS tt_1 ) UNION 
(SELECT DISTINCT tt_1.s AS s,4885219 AS p,2986219 AS o FROM t_2986219 AS tt_1 ) UNION 
(SELECT DISTINCT tt_1.s AS s,4885219 AS p,16102024 AS o FROM t_16102024 AS tt_1 ) UNION 
(SELECT DISTINCT tt_1.s AS s,4885219 AS p,22556651 AS o FROM t_22556651 AS tt_1 ) UNION 
(SELECT DISTINCT tt_1.s AS s,4885219 AS p,22676495 AS o FROM t_22676495 AS tt_1 ) UNION 
(SELECT DISTINCT tt_1.s AS s,2153909 AS p,tt_1.o AS o FROM t_2153909 AS tt_1 ) UNION 
(SELECT DISTINCT tt_1.s AS s,4885219 AS p,3811189 AS o FROM t_3811189 AS tt_1 ) UNION 
(SELECT DISTINCT tt_1.s AS s,4885219 AS p,14336006 AS o FROM t_14336006 AS tt_1 ) UNION 
(SELECT DISTINCT tt_1.s AS s,4885219 AS p,21986346 AS o FROM t_21986346 AS tt_1 ) UNION 
(SELECT DISTINCT tt_1.s AS s,4885219 AS p,11571344 AS o FROM t_11571344 AS tt_1 ) UNION 
(SELECT DISTINCT tt_1.s AS s,4885219 AS p,739164 AS o FROM t_739164 AS tt_1 ) UNION 
(SELECT DISTINCT tt_1.s AS s,16561279 AS p,tt_1.o AS o FROM t_16561279 AS tt_1 ) UNION 
(SELECT DISTINCT tt_1.s AS s,8852250 AS p,tt_1.o AS o FROM t_8852250 AS tt_1 ) UNION 
(SELECT DISTINCT tt_1.s AS s,4885219 AS p,1372787 AS o FROM t_1372787 AS tt_1 ) UNION 
(SELECT DISTINCT tt_1.s AS s,6482488 AS p,tt_1.o AS o FROM t_6482488 AS tt_1 ) UNION 
(SELECT DISTINCT tt_1.s AS s,4885219 AS p,23915985 AS o FROM t_23915985 AS tt_1 ) UNION 
(SELECT DISTINCT tt_1.s AS s,4885219 AS p,17619698 AS o FROM t_17619698 AS tt_1 ) UNION 
(SELECT DISTINCT tt_1.s AS s,4885219 AS p,25234334 AS o FROM t_25234334 AS tt_1 ) UNION 
(SELECT DISTINCT tt_1.s AS s,8759755 AS p,tt_1.o AS o FROM t_8759755 AS tt_1 ) UNION 
(SELECT DISTINCT tt_1.s AS s,4885219 AS p,1802885 AS o FROM t_1802885 AS tt_1 ) UNION 
(SELECT DISTINCT tt_1.s AS s,8165516 AS p,tt_1.o AS o FROM t_8165516 AS tt_1 ) UNION 
(SELECT DISTINCT tt_1.s AS s,22117849 AS p,tt_1.o AS o FROM t_22117849 AS tt_1 ) UNION 
(SELECT DISTINCT tt_1.s AS s,16328923 AS p,tt_1.o AS o FROM t_16328923 AS tt_1 ) UNION 
(SELECT DISTINCT tt_1.s AS s,1014951 AS p,tt_1.o AS o FROM t_1014951 AS tt_1 ) UNION 
(SELECT DISTINCT tt_1.s AS s,4885219 AS p,8727249 AS o FROM t_8727249 AS tt_1 ) UNION 
(SELECT DISTINCT tt_1.s AS s,4885219 AS p,21648803 AS o FROM t_21648803 AS tt_1 ) UNION 
(SELECT DISTINCT tt_1.s AS s,4885219 AS p,21996890 AS o FROM t_21996890 AS tt_1 ) UNION 
(SELECT DISTINCT tt_1.s AS s,1896150 AS p,tt_1.o AS o FROM t_1896150 AS tt_1 ) UNION 
(SELECT DISTINCT tt_1.s AS s,993705 AS p,tt_1.o AS o FROM t_993705 AS tt_1 ) UNION 
(SELECT DISTINCT tt_1.s AS s,4885219 AS p,22651863 AS o FROM t_22651863 AS tt_1 ) UNION 
(SELECT DISTINCT tt_1.s AS s,4885219 AS p,18220402 AS o FROM t_18220402 AS tt_1 ) UNION 
(SELECT DISTINCT tt_1.s AS s,4885219 AS p,7574933 AS o FROM t_7574933 AS tt_1 ) UNION 
(SELECT DISTINCT tt_1.s AS s,4885219 AS p,15549960 AS o FROM t_15549960 AS tt_1 ) UNION 
(SELECT DISTINCT tt_1.s AS s,12637441 AS p,tt_1.o AS o FROM t_12637441 AS tt_1 ) UNION 
(SELECT DISTINCT tt_1.s AS s,14400976 AS p,tt_1.o AS o FROM t_14400976 AS tt_1 )
) SELECT DISTINCT pt1393.s AS att_X,pt1394.o AS att_Y FROM t_22552132 AS pt1393,gen_t AS pt1394,t_16561279 AS pt1395 WHERE pt1395.o='24830358' AND pt1394.p=pt1395.s AND pt1394.s=pt1393.s
Q05

0
WITH uns_t AS  ((SELECT DISTINCT tt_1.s AS s,4885219 AS p,3921200 AS o FROM t_3921200 AS tt_1 ) UNION 
(SELECT DISTINCT tt_1.s AS s,4885219 AS p,1802885 AS o FROM t_1802885 AS tt_1 ) UNION 
(SELECT DISTINCT tt_1.s AS s,4885219 AS p,8007989 AS o FROM t_8007989 AS tt_1 ) UNION 
(SELECT DISTINCT tt_1.s AS s,4885219 AS p,8727249 AS o FROM t_8727249 AS tt_1 ) UNION 
(SELECT DISTINCT tt_1.s AS s,4885219 AS p,21648803 AS o FROM t_21648803 AS tt_1 ) UNION 
(SELECT DISTINCT tt_1.s AS s,4885219 AS p,2299993 AS o FROM t_2299993 AS tt_1 ) UNION 
(SELECT DISTINCT tt_1.s AS s,4885219 AS p,16367420 AS o FROM t_16367420 AS tt_1 ) UNION 
(SELECT DISTINCT tt_1.s AS s,4885219 AS p,21996890 AS o FROM t_21996890 AS tt_1 ) UNION 
(SELECT DISTINCT tt_1.s AS s,4885219 AS p,22651863 AS o FROM t_22651863 AS tt_1 ) UNION 
(SELECT DISTINCT tt_1.s AS s,4885219 AS p,22142086 AS o FROM t_22142086 AS tt_1 ) UNION 
(SELECT DISTINCT tt_1.s AS s,4885219 AS p,18220402 AS o FROM t_18220402 AS tt_1 ) UNION 
(SELECT DISTINCT tt_1.s AS s,4885219 AS p,7574933 AS o FROM t_7574933 AS tt_1 ) UNION 
(SELECT DISTINCT tt_1.s AS s,4885219 AS p,3488252 AS o FROM t_3488252 AS tt_1 ) UNION 
(SELECT DISTINCT tt_1.s AS s,4885219 AS p,2986219 AS o FROM t_2986219 AS tt_1 ) UNION 
(SELECT DISTINCT tt_1.s AS s,4885219 AS p,15549960 AS o FROM t_15549960 AS tt_1 ) UNION 
(SELECT DISTINCT tt_1.s AS s,4885219 AS p,16102024 AS o FROM t_16102024 AS tt_1 ) UNION 
(SELECT DISTINCT tt_1.s AS s,4885219 AS p,22556651 AS o FROM t_22556651 AS tt_1 ) UNION 
(SELECT DISTINCT tt_1.s AS s,4885219 AS p,22676495 AS o FROM t_22676495 AS tt_1 ) UNION 
(SELECT DISTINCT tt_1.s AS s,4885219 AS p,22552132 AS o FROM t_22552132 AS tt_1 ) UNION 
(SELECT DISTINCT tt_1.s AS s,4885219 AS p,3492502 AS o FROM t_3492502 AS tt_1 ) UNION 
(SELECT DISTINCT tt_1.s AS s,4885219 AS p,13890787 AS o FROM t_13890787 AS tt_1 ) UNION 
(SELECT DISTINCT tt_1.s AS s,4885219 AS p,3849344 AS o FROM t_3849344 AS tt_1 ) UNION 
(SELECT DISTINCT tt_1.s AS s,4885219 AS p,14336006 AS o FROM t_14336006 AS tt_1 ) UNION 
(SELECT DISTINCT tt_1.s AS s,4885219 AS p,18385456 AS o FROM t_18385456 AS tt_1 ) UNION 
(SELECT DISTINCT tt_1.s AS s,4885219 AS p,3811189 AS o FROM t_3811189 AS tt_1 ) UNION 
(SELECT DISTINCT tt_1.s AS s,4885219 AS p,21986346 AS o FROM t_21986346 AS tt_1 ) UNION 
(SELECT DISTINCT tt_1.s AS s,4885219 AS p,11571344 AS o FROM t_11571344 AS tt_1 ) UNION 
(SELECT DISTINCT tt_1.s AS s,4885219 AS p,12734835 AS o FROM t_12734835 AS tt_1 ) UNION 
(SELECT DISTINCT tt_1.s AS s,4885219 AS p,739164 AS o FROM t_739164 AS tt_1 ) UNION 
(SELECT DISTINCT tt_1.s AS s,4885219 AS p,2511159 AS o FROM t_2511159 AS tt_1 ) UNION 
(SELECT DISTINCT tt_1.s AS s,4885219 AS p,1291759 AS o FROM t_1291759 AS tt_1 ) UNION 
(SELECT DISTINCT tt_1.s AS s,4885219 AS p,1479080 AS o FROM t_1479080 AS tt_1 ) UNION 
(SELECT DISTINCT tt_1.s AS s,4885219 AS p,8420053 AS o FROM t_8420053 AS tt_1 ) UNION 
(SELECT DISTINCT tt_1.s AS s,4885219 AS p,1372787 AS o FROM t_1372787 AS tt_1 ) UNION 
(SELECT DISTINCT tt_1.s AS s,4885219 AS p,13372933 AS o FROM t_13372933 AS tt_1 ) UNION 
(SELECT DISTINCT tt_1.s AS s,4885219 AS p,21059061 AS o FROM t_21059061 AS tt_1 ) UNION 
(SELECT DISTINCT tt_1.s AS s,4885219 AS p,21637133 AS o FROM t_21637133 AS tt_1 ) UNION 
(SELECT DISTINCT tt_1.s AS s,4885219 AS p,4057117 AS o FROM t_4057117 AS tt_1 ) UNION 
(SELECT DISTINCT tt_1.s AS s,4885219 AS p,23915985 AS o FROM t_23915985 AS tt_1 ) UNION 
(SELECT DISTINCT tt_1.s AS s,4885219 AS p,17619698 AS o FROM t_17619698 AS tt_1 ) UNION 
(SELECT DISTINCT tt_1.s AS s,4885219 AS p,22507034 AS o FROM t_22507034 AS tt_1 ) UNION 
(SELECT DISTINCT tt_1.s AS s,4885219 AS p,26047100 AS o FROM t_26047100 AS tt_1 ) UNION 
(SELECT DISTINCT tt_1.s AS s,4885219 AS p,25234334 AS o FROM t_25234334 AS tt_1 ) UNION 
(SELECT DISTINCT tt_1.s AS s,4885219 AS p,24830358 AS o FROM t_24830358 AS tt_1 ) UNION 
(SELECT DISTINCT tt_1.s AS s,4885219 AS p,12718960 AS o FROM t_12718960 AS tt_1 )
) SELECT DISTINCT pt1961.s AS att_P,pt1962.o AS att_PC,pt1959.s AS att_O,pt1959.o AS att_OC FROM uns_t AS pt1959,t_8165516 AS pt1960,t_8759755 AS pt1961,uns_t AS pt1962,t_8165516 AS pt1963 WHERE pt1960.o='25234334' AND pt1963.o='16102024' AND pt1961.s=pt1962.s AND pt1963.s=pt1962.o AND pt1959.o=pt1960.s AND pt1961.o=pt1959.s
Q06

0
WITH uns_t AS  ((SELECT DISTINCT tt_1.s AS s,4885219 AS p,22552132 AS o FROM t_22552132 AS tt_1 ) UNION 
(SELECT DISTINCT tt_1.s AS s,4885219 AS p,3492502 AS o FROM t_3492502 AS tt_1 ) UNION 
(SELECT DISTINCT tt_1.s AS s,4885219 AS p,13890787 AS o FROM t_13890787 AS tt_1 ) UNION 
(SELECT DISTINCT tt_1.s AS s,4885219 AS p,3849344 AS o FROM t_3849344 AS tt_1 ) UNION 
(SELECT DISTINCT tt_1.s AS s,4885219 AS p,18385456 AS o FROM t_18385456 AS tt_1 ) UNION 
(SELECT DISTINCT tt_1.s AS s,4885219 AS p,3811189 AS o FROM t_3811189 AS tt_1 ) UNION 
(SELECT DISTINCT tt_1.s AS s,4885219 AS p,14336006 AS o FROM t_14336006 AS tt_1 ) UNION 
(SELECT DISTINCT tt_1.s AS s,4885219 AS p,21986346 AS o FROM t_21986346 AS tt_1 ) UNION 
(SELECT DISTINCT tt_1.s AS s,4885219 AS p,11571344 AS o FROM t_11571344 AS tt_1 ) UNION 
(SELECT DISTINCT tt_1.s AS s,4885219 AS p,12734835 AS o FROM t_12734835 AS tt_1 ) UNION 
(SELECT DISTINCT tt_1.s AS s,4885219 AS p,739164 AS o FROM t_739164 AS tt_1 ) UNION 
(SELECT DISTINCT tt_1.s AS s,4885219 AS p,2511159 AS o FROM t_2511159 AS tt_1 ) UNION 
(SELECT DISTINCT tt_1.s AS s,4885219 AS p,1291759 AS o FROM t_1291759 AS tt_1 ) UNION 
(SELECT DISTINCT tt_1.s AS s,4885219 AS p,1479080 AS o FROM t_1479080 AS tt_1 ) UNION 
(SELECT DISTINCT tt_1.s AS s,4885219 AS p,8420053 AS o FROM t_8420053 AS tt_1 ) UNION 
(SELECT DISTINCT tt_1.s AS s,4885219 AS p,1372787 AS o FROM t_1372787 AS tt_1 ) UNION 
(SELECT DISTINCT tt_1.s AS s,4885219 AS p,13372933 AS o FROM t_13372933 AS tt_1 ) UNION 
(SELECT DISTINCT tt_1.s AS s,4885219 AS p,21059061 AS o FROM t_21059061 AS tt_1 ) UNION 
(SELECT DISTINCT tt_1.s AS s,4885219 AS p,21637133 AS o FROM t_21637133 AS tt_1 ) UNION 
(SELECT DISTINCT tt_1.s AS s,4885219 AS p,4057117 AS o FROM t_4057117 AS tt_1 ) UNION 
(SELECT DISTINCT tt_1.s AS s,4885219 AS p,23915985 AS o FROM t_23915985 AS tt_1 ) UNION 
(SELECT DISTINCT tt_1.s AS s,4885219 AS p,17619698 AS o FROM t_17619698 AS tt_1 ) UNION 
(SELECT DISTINCT tt_1.s AS s,4885219 AS p,22507034 AS o FROM t_22507034 AS tt_1 ) UNION 
(SELECT DISTINCT tt_1.s AS s,4885219 AS p,26047100 AS o FROM t_26047100 AS tt_1 ) UNION 
(SELECT DISTINCT tt_1.s AS s,4885219 AS p,25234334 AS o FROM t_25234334 AS tt_1 ) UNION 
(SELECT DISTINCT tt_1.s AS s,4885219 AS p,24830358 AS o FROM t_24830358 AS tt_1 ) UNION 
(SELECT DISTINCT tt_1.s AS s,4885219 AS p,12718960 AS o FROM t_12718960 AS tt_1 ) UNION 
(SELECT DISTINCT tt_1.s AS s,4885219 AS p,3921200 AS o FROM t_3921200 AS tt_1 ) UNION 
(SELECT DISTINCT tt_1.s AS s,4885219 AS p,1802885 AS o FROM t_1802885 AS tt_1 ) UNION 
(SELECT DISTINCT tt_1.s AS s,4885219 AS p,8007989 AS o FROM t_8007989 AS tt_1 ) UNION 
(SELECT DISTINCT tt_1.s AS s,4885219 AS p,8727249 AS o FROM t_8727249 AS tt_1 ) UNION 
(SELECT DISTINCT tt_1.s AS s,4885219 AS p,21648803 AS o FROM t_21648803 AS tt_1 ) UNION 
(SELECT DISTINCT tt_1.s AS s,4885219 AS p,2299993 AS o FROM t_2299993 AS tt_1 ) UNION 
(SELECT DISTINCT tt_1.s AS s,4885219 AS p,21996890 AS o FROM t_21996890 AS tt_1 ) UNION 
(SELECT DISTINCT tt_1.s AS s,4885219 AS p,16367420 AS o FROM t_16367420 AS tt_1 ) UNION 
(SELECT DISTINCT tt_1.s AS s,4885219 AS p,22142086 AS o FROM t_22142086 AS tt_1 ) UNION 
(SELECT DISTINCT tt_1.s AS s,4885219 AS p,22651863 AS o FROM t_22651863 AS tt_1 ) UNION 
(SELECT DISTINCT tt_1.s AS s,4885219 AS p,18220402 AS o FROM t_18220402 AS tt_1 ) UNION 
(SELECT DISTINCT tt_1.s AS s,4885219 AS p,7574933 AS o FROM t_7574933 AS tt_1 ) UNION 
(SELECT DISTINCT tt_1.s AS s,4885219 AS p,3488252 AS o FROM t_3488252 AS tt_1 ) UNION 
(SELECT DISTINCT tt_1.s AS s,4885219 AS p,2986219 AS o FROM t_2986219 AS tt_1 ) UNION 
(SELECT DISTINCT tt_1.s AS s,4885219 AS p,15549960 AS o FROM t_15549960 AS tt_1 ) UNION 
(SELECT DISTINCT tt_1.s AS s,4885219 AS p,16102024 AS o FROM t_16102024 AS tt_1 ) UNION 
(SELECT DISTINCT tt_1.s AS s,4885219 AS p,22556651 AS o FROM t_22556651 AS tt_1 ) UNION 
(SELECT DISTINCT tt_1.s AS s,4885219 AS p,22676495 AS o FROM t_22676495 AS tt_1 )
) SELECT DISTINCT pt2384.s AS att_Z,pt2384.o AS att_S1 FROM uns_t AS pt2384,t_21059061 AS pt2385,t_22651863 AS pt2386,t_11291713 AS pt2387,t_22117849 AS pt2388 WHERE pt2388.o=pt2386.s AND pt2388.o=pt2387.o AND pt2386.s=pt2387.o AND pt2385.s=pt2388.s AND pt2384.s=pt2387.s
Q07

0
WITH uns_t AS  ((SELECT DISTINCT tt_1.s AS s,4885219 AS p,22552132 AS o FROM t_22552132 AS tt_1 ) UNION 
(SELECT DISTINCT tt_1.s AS s,4885219 AS p,3492502 AS o FROM t_3492502 AS tt_1 ) UNION 
(SELECT DISTINCT tt_1.s AS s,4885219 AS p,13890787 AS o FROM t_13890787 AS tt_1 ) UNION 
(SELECT DISTINCT tt_1.s AS s,4885219 AS p,3849344 AS o FROM t_3849344 AS tt_1 ) UNION 
(SELECT DISTINCT tt_1.s AS s,4885219 AS p,18385456 AS o FROM t_18385456 AS tt_1 ) UNION 
(SELECT DISTINCT tt_1.s AS s,4885219 AS p,3811189 AS o FROM t_3811189 AS tt_1 ) UNION 
(SELECT DISTINCT tt_1.s AS s,4885219 AS p,14336006 AS o FROM t_14336006 AS tt_1 ) UNION 
(SELECT DISTINCT tt_1.s AS s,4885219 AS p,21986346 AS o FROM t_21986346 AS tt_1 ) UNION 
(SELECT DISTINCT tt_1.s AS s,4885219 AS p,11571344 AS o FROM t_11571344 AS tt_1 ) UNION 
(SELECT DISTINCT tt_1.s AS s,4885219 AS p,12734835 AS o FROM t_12734835 AS tt_1 ) UNION 
(SELECT DISTINCT tt_1.s AS s,4885219 AS p,739164 AS o FROM t_739164 AS tt_1 ) UNION 
(SELECT DISTINCT tt_1.s AS s,4885219 AS p,2511159 AS o FROM t_2511159 AS tt_1 ) UNION 
(SELECT DISTINCT tt_1.s AS s,4885219 AS p,1291759 AS o FROM t_1291759 AS tt_1 ) UNION 
(SELECT DISTINCT tt_1.s AS s,4885219 AS p,1479080 AS o FROM t_1479080 AS tt_1 ) UNION 
(SELECT DISTINCT tt_1.s AS s,4885219 AS p,8420053 AS o FROM t_8420053 AS tt_1 ) UNION 
(SELECT DISTINCT tt_1.s AS s,4885219 AS p,1372787 AS o FROM t_1372787 AS tt_1 ) UNION 
(SELECT DISTINCT tt_1.s AS s,4885219 AS p,13372933 AS o FROM t_13372933 AS tt_1 ) UNION 
(SELECT DISTINCT tt_1.s AS s,4885219 AS p,21059061 AS o FROM t_21059061 AS tt_1 ) UNION 
(SELECT DISTINCT tt_1.s AS s,4885219 AS p,21637133 AS o FROM t_21637133 AS tt_1 ) UNION 
(SELECT DISTINCT tt_1.s AS s,4885219 AS p,4057117 AS o FROM t_4057117 AS tt_1 ) UNION 
(SELECT DISTINCT tt_1.s AS s,4885219 AS p,23915985 AS o FROM t_23915985 AS tt_1 ) UNION 
(SELECT DISTINCT tt_1.s AS s,4885219 AS p,17619698 AS o FROM t_17619698 AS tt_1 ) UNION 
(SELECT DISTINCT tt_1.s AS s,4885219 AS p,22507034 AS o FROM t_22507034 AS tt_1 ) UNION 
(SELECT DISTINCT tt_1.s AS s,4885219 AS p,26047100 AS o FROM t_26047100 AS tt_1 ) UNION 
(SELECT DISTINCT tt_1.s AS s,4885219 AS p,25234334 AS o FROM t_25234334 AS tt_1 ) UNION 
(SELECT DISTINCT tt_1.s AS s,4885219 AS p,24830358 AS o FROM t_24830358 AS tt_1 ) UNION 
(SELECT DISTINCT tt_1.s AS s,4885219 AS p,12718960 AS o FROM t_12718960 AS tt_1 ) UNION 
(SELECT DISTINCT tt_1.s AS s,4885219 AS p,3921200 AS o FROM t_3921200 AS tt_1 ) UNION 
(SELECT DISTINCT tt_1.s AS s,4885219 AS p,1802885 AS o FROM t_1802885 AS tt_1 ) UNION 
(SELECT DISTINCT tt_1.s AS s,4885219 AS p,8007989 AS o FROM t_8007989 AS tt_1 ) UNION 
(SELECT DISTINCT tt_1.s AS s,4885219 AS p,8727249 AS o FROM t_8727249 AS tt_1 ) UNION 
(SELECT DISTINCT tt_1.s AS s,4885219 AS p,21648803 AS o FROM t_21648803 AS tt_1 ) UNION 
(SELECT DISTINCT tt_1.s AS s,4885219 AS p,2299993 AS o FROM t_2299993 AS tt_1 ) UNION 
(SELECT DISTINCT tt_1.s AS s,4885219 AS p,21996890 AS o FROM t_21996890 AS tt_1 ) UNION 
(SELECT DISTINCT tt_1.s AS s,4885219 AS p,16367420 AS o FROM t_16367420 AS tt_1 ) UNION 
(SELECT DISTINCT tt_1.s AS s,4885219 AS p,22142086 AS o FROM t_22142086 AS tt_1 ) UNION 
(SELECT DISTINCT tt_1.s AS s,4885219 AS p,22651863 AS o FROM t_22651863 AS tt_1 ) UNION 
(SELECT DISTINCT tt_1.s AS s,4885219 AS p,18220402 AS o FROM t_18220402 AS tt_1 ) UNION 
(SELECT DISTINCT tt_1.s AS s,4885219 AS p,7574933 AS o FROM t_7574933 AS tt_1 ) UNION 
(SELECT DISTINCT tt_1.s AS s,4885219 AS p,3488252 AS o FROM t_3488252 AS tt_1 ) UNION 
(SELECT DISTINCT tt_1.s AS s,4885219 AS p,2986219 AS o FROM t_2986219 AS tt_1 ) UNION 
(SELECT DISTINCT tt_1.s AS s,4885219 AS p,15549960 AS o FROM t_15549960 AS tt_1 ) UNION 
(SELECT DISTINCT tt_1.s AS s,4885219 AS p,16102024 AS o FROM t_16102024 AS tt_1 ) UNION 
(SELECT DISTINCT tt_1.s AS s,4885219 AS p,22556651 AS o FROM t_22556651 AS tt_1 ) UNION 
(SELECT DISTINCT tt_1.s AS s,4885219 AS p,22676495 AS o FROM t_22676495 AS tt_1 )
) SELECT DISTINCT pt2799.s AS att_X,pt2800.s AS att_Y,pt2803.o AS att_Z,pt2799.o AS att_PC FROM uns_t AS pt2799,t_21986346 AS pt2800,t_8759755 AS pt2801,t_683207 AS pt2802,t_9725923 AS pt2803 WHERE pt2802.o='6463587' AND pt2801.s=pt2803.s AND pt2801.s=pt2799.s AND pt2803.s=pt2799.s AND pt2800.s=pt2801.o AND pt2800.s=pt2802.s AND pt2801.o=pt2802.s
Q08

0
WITH gen_t AS  ((SELECT DISTINCT tt_1.s AS s,17292348 AS p,tt_1.o AS o FROM t_17292348 AS tt_1 ) UNION 
(SELECT DISTINCT tt_1.s AS s,4885219 AS p,22552132 AS o FROM t_22552132 AS tt_1 ) UNION 
(SELECT DISTINCT tt_1.s AS s,4885219 AS p,3492502 AS o FROM t_3492502 AS tt_1 ) UNION 
(SELECT DISTINCT tt_1.s AS s,4885219 AS p,13890787 AS o FROM t_13890787 AS tt_1 ) UNION 
(SELECT DISTINCT tt_1.s AS s,4885219 AS p,3849344 AS o FROM t_3849344 AS tt_1 ) UNION 
(SELECT DISTINCT tt_1.s AS s,4885219 AS p,18385456 AS o FROM t_18385456 AS tt_1 ) UNION 
(SELECT DISTINCT tt_1.s AS s,1014951 AS p,tt_1.o AS o FROM t_1014951 AS tt_1 ) UNION 
(SELECT DISTINCT tt_1.s AS s,4885219 AS p,12734835 AS o FROM t_12734835 AS tt_1 ) UNION 
(SELECT DISTINCT tt_1.s AS s,4885219 AS p,2511159 AS o FROM t_2511159 AS tt_1 ) UNION 
(SELECT DISTINCT tt_1.s AS s,4885219 AS p,1291759 AS o FROM t_1291759 AS tt_1 ) UNION 
(SELECT DISTINCT tt_1.s AS s,4885219 AS p,1479080 AS o FROM t_1479080 AS tt_1 ) UNION 
(SELECT DISTINCT tt_1.s AS s,993705 AS p,tt_1.o AS o FROM t_993705 AS tt_1 ) UNION 
(SELECT DISTINCT tt_1.s AS s,4885219 AS p,8420053 AS o FROM t_8420053 AS tt_1 ) UNION 
(SELECT DISTINCT tt_1.s AS s,4885219 AS p,13372933 AS o FROM t_13372933 AS tt_1 ) UNION 
(SELECT DISTINCT tt_1.s AS s,4885219 AS p,21059061 AS o FROM t_21059061 AS tt_1 ) UNION 
(SELECT DISTINCT tt_1.s AS s,4885219 AS p,21637133 AS o FROM t_21637133 AS tt_1 ) UNION 
(SELECT DISTINCT tt_1.s AS s,4885219 AS p,4057117 AS o FROM t_4057117 AS tt_1 ) UNION 
(SELECT DISTINCT tt_1.s AS s,4885219 AS p,22507034 AS o FROM t_22507034 AS tt_1 ) UNION 
(SELECT DISTINCT tt_1.s AS s,14400976 AS p,tt_1.o AS o FROM t_14400976 AS tt_1 ) UNION 
(SELECT DISTINCT tt_1.s AS s,4885219 AS p,26047100 AS o FROM t_26047100 AS tt_1 ) UNION 
(SELECT DISTINCT tt_1.s AS s,4885219 AS p,24830358 AS o FROM t_24830358 AS tt_1 ) UNION 
(SELECT DISTINCT tt_1.s AS s,2153909 AS p,tt_1.o AS o FROM t_2153909 AS tt_1 ) UNION 
(SELECT DISTINCT tt_1.s AS s,4885219 AS p,12718960 AS o FROM t_12718960 AS tt_1 ) UNION 
(SELECT DISTINCT tt_1.s AS s,4885219 AS p,3921200 AS o FROM t_3921200 AS tt_1 ) UNION 
(SELECT DISTINCT tt_1.s AS s,4885219 AS p,8007989 AS o FROM t_8007989 AS tt_1 ) UNION 
(SELECT DISTINCT tt_1.s AS s,4885219 AS p,2299993 AS o FROM t_2299993 AS tt_1 ) UNION 
(SELECT DISTINCT tt_1.s AS s,16561279 AS p,tt_1.o AS o FROM t_16561279 AS tt_1 ) UNION 
(SELECT DISTINCT tt_1.s AS s,4885219 AS p,16367420 AS o FROM t_16367420 AS tt_1 ) UNION 
(SELECT DISTINCT tt_1.s AS s,4885219 AS p,22142086 AS o FROM t_22142086 AS tt_1 ) UNION 
(SELECT DISTINCT tt_1.s AS s,4885219 AS p,3488252 AS o FROM t_3488252 AS tt_1 ) UNION 
(SELECT DISTINCT tt_1.s AS s,6997397 AS p,tt_1.o AS o FROM t_6997397 AS tt_1 ) UNION 
(SELECT DISTINCT tt_1.s AS s,683207 AS p,tt_1.o AS o FROM t_683207 AS tt_1 ) UNION 
(SELECT DISTINCT tt_1.s AS s,4885219 AS p,2986219 AS o FROM t_2986219 AS tt_1 ) UNION 
(SELECT DISTINCT tt_1.s AS s,4885219 AS p,16102024 AS o FROM t_16102024 AS tt_1 ) UNION 
(SELECT DISTINCT tt_1.s AS s,4885219 AS p,22556651 AS o FROM t_22556651 AS tt_1 ) UNION 
(SELECT DISTINCT tt_1.s AS s,4885219 AS p,22676495 AS o FROM t_22676495 AS tt_1 ) UNION 
(SELECT DISTINCT tt_1.s AS s,8759755 AS p,tt_1.o AS o FROM t_8759755 AS tt_1 ) UNION 
(SELECT DISTINCT tt_1.s AS s,13953271 AS p,tt_1.o AS o FROM t_13953271 AS tt_1 ) UNION 
(SELECT DISTINCT tt_1.s AS s,4885219 AS p,3811189 AS o FROM t_3811189 AS tt_1 ) UNION 
(SELECT DISTINCT tt_1.s AS s,4885219 AS p,14336006 AS o FROM t_14336006 AS tt_1 ) UNION 
(SELECT DISTINCT tt_1.s AS s,8165516 AS p,tt_1.o AS o FROM t_8165516 AS tt_1 ) UNION 
(SELECT DISTINCT tt_1.s AS s,22117849 AS p,tt_1.o AS o FROM t_22117849 AS tt_1 ) UNION 
(SELECT DISTINCT tt_1.s AS s,9725923 AS p,tt_1.o AS o FROM t_9725923 AS tt_1 ) UNION 
(SELECT DISTINCT tt_1.s AS s,4885219 AS p,21986346 AS o FROM t_21986346 AS tt_1 ) UNION 
(SELECT DISTINCT tt_1.s AS s,16328923 AS p,tt_1.o AS o FROM t_16328923 AS tt_1 ) UNION 
(SELECT DISTINCT tt_1.s AS s,4885219 AS p,11571344 AS o FROM t_11571344 AS tt_1 ) UNION 
(SELECT DISTINCT tt_1.s AS s,4885219 AS p,739164 AS o FROM t_739164 AS tt_1 ) UNION 
(SELECT DISTINCT tt_1.s AS s,1896150 AS p,tt_1.o AS o FROM t_1896150 AS tt_1 ) UNION 
(SELECT DISTINCT tt_1.s AS s,2486984 AS p,tt_1.o AS o FROM t_2486984 AS tt_1 ) UNION 
(SELECT DISTINCT tt_1.s AS s,13424281 AS p,tt_1.o AS o FROM t_13424281 AS tt_1 ) UNION 
(SELECT DISTINCT tt_1.s AS s,4885219 AS p,1372787 AS o FROM t_1372787 AS tt_1 ) UNION 
(SELECT DISTINCT tt_1.s AS s,4885219 AS p,23915985 AS o FROM t_23915985 AS tt_1 ) UNION 
(SELECT DISTINCT tt_1.s AS s,4885219 AS p,17619698 AS o FROM t_17619698 AS tt_1 ) UNION 
(SELECT DISTINCT tt_1.s AS s,12637441 AS p,tt_1.o AS o FROM t_12637441 AS tt_1 ) UNION 
(SELECT DISTINCT tt_1.s AS s,4885219 AS p,25234334 AS o FROM t_25234334 AS tt_1 ) UNION 
(SELECT DISTINCT tt_1.s AS s,4885219 AS p,1802885 AS o FROM t_1802885 AS tt_1 ) UNION 
(SELECT DISTINCT tt_1.s AS s,4885219 AS p,8727249 AS o FROM t_8727249 AS tt_1 ) UNION 
(SELECT DISTINCT tt_1.s AS s,4885219 AS p,21648803 AS o FROM t_21648803 AS tt_1 ) UNION 
(SELECT DISTINCT tt_1.s AS s,8852250 AS p,tt_1.o AS o FROM t_8852250 AS tt_1 ) UNION 
(SELECT DISTINCT tt_1.s AS s,4885219 AS p,21996890 AS o FROM t_21996890 AS tt_1 ) UNION 
(SELECT DISTINCT tt_1.s AS s,4885219 AS p,22651863 AS o FROM t_22651863 AS tt_1 ) UNION 
(SELECT DISTINCT tt_1.s AS s,4885219 AS p,18220402 AS o FROM t_18220402 AS tt_1 ) UNION 
(SELECT DISTINCT tt_1.s AS s,20166987 AS p,tt_1.o AS o FROM t_20166987 AS tt_1 ) UNION 
(SELECT DISTINCT tt_1.s AS s,11291713 AS p,tt_1.o AS o FROM t_11291713 AS tt_1 ) UNION 
(SELECT DISTINCT tt_1.s AS s,4885219 AS p,7574933 AS o FROM t_7574933 AS tt_1 ) UNION 
(SELECT DISTINCT tt_1.s AS s,6482488 AS p,tt_1.o AS o FROM t_6482488 AS tt_1 ) UNION 
(SELECT DISTINCT tt_1.s AS s,4885219 AS p,15549960 AS o FROM t_15549960 AS tt_1 ) UNION 
(SELECT DISTINCT tt_1.s AS s,19388482 AS p,tt_1.o AS o FROM t_19388482 AS tt_1 )
) SELECT DISTINCT pt3218.s AS att_X,pt3220.p AS att_P,pt3218.o AS att_O FROM t_8759755 AS pt3218,t_683207 AS pt3219,gen_t AS pt3220,t_993705 AS pt3221 WHERE pt3221.o='1896150' AND pt3221.s=pt3220.p AND pt3220.s=pt3218.s AND pt3220.o=pt3219.o AND pt3219.s=pt3218.o
Q09

0
WITH gen_t AS  ((SELECT DISTINCT tt_1.s AS s,17292348 AS p,tt_1.o AS o FROM t_17292348 AS tt_1 ) UNION 
(SELECT DISTINCT tt_1.s AS s,4885219 AS p,22552132 AS o FROM t_22552132 AS tt_1 ) UNION 
(SELECT DISTINCT tt_1.s AS s,4885219 AS p,3492502 AS o FROM t_3492502 AS tt_1 ) UNION 
(SELECT DISTINCT tt_1.s AS s,4885219 AS p,13890787 AS o FROM t_13890787 AS tt_1 ) UNION 
(SELECT DISTINCT tt_1.s AS s,4885219 AS p,3849344 AS o FROM t_3849344 AS tt_1 ) UNION 
(SELECT DISTINCT tt_1.s AS s,4885219 AS p,18385456 AS o FROM t_18385456 AS tt_1 ) UNION 
(SELECT DISTINCT tt_1.s AS s,1014951 AS p,tt_1.o AS o FROM t_1014951 AS tt_1 ) UNION 
(SELECT DISTINCT tt_1.s AS s,4885219 AS p,12734835 AS o FROM t_12734835 AS tt_1 ) UNION 
(SELECT DISTINCT tt_1.s AS s,4885219 AS p,2511159 AS o FROM t_2511159 AS tt_1 ) UNION 
(SELECT DISTINCT tt_1.s AS s,4885219 AS p,1291759 AS o FROM t_1291759 AS tt_1 ) UNION 
(SELECT DISTINCT tt_1.s AS s,4885219 AS p,1479080 AS o FROM t_1479080 AS tt_1 ) UNION 
(SELECT DISTINCT tt_1.s AS s,993705 AS p,tt_1.o AS o FROM t_993705 AS tt_1 ) UNION 
(SELECT DISTINCT tt_1.s AS s,4885219 AS p,8420053 AS o FROM t_8420053 AS tt_1 ) UNION 
(SELECT DISTINCT tt_1.s AS s,4885219 AS p,13372933 AS o FROM t_13372933 AS tt_1 ) UNION 
(SELECT DISTINCT tt_1.s AS s,4885219 AS p,21059061 AS o FROM t_21059061 AS tt_1 ) UNION 
(SELECT DISTINCT tt_1.s AS s,4885219 AS p,21637133 AS o FROM t_21637133 AS tt_1 ) UNION 
(SELECT DISTINCT tt_1.s AS s,4885219 AS p,4057117 AS o FROM t_4057117 AS tt_1 ) UNION 
(SELECT DISTINCT tt_1.s AS s,4885219 AS p,22507034 AS o FROM t_22507034 AS tt_1 ) UNION 
(SELECT DISTINCT tt_1.s AS s,14400976 AS p,tt_1.o AS o FROM t_14400976 AS tt_1 ) UNION 
(SELECT DISTINCT tt_1.s AS s,4885219 AS p,26047100 AS o FROM t_26047100 AS tt_1 ) UNION 
(SELECT DISTINCT tt_1.s AS s,4885219 AS p,24830358 AS o FROM t_24830358 AS tt_1 ) UNION 
(SELECT DISTINCT tt_1.s AS s,2153909 AS p,tt_1.o AS o FROM t_2153909 AS tt_1 ) UNION 
(SELECT DISTINCT tt_1.s AS s,4885219 AS p,12718960 AS o FROM t_12718960 AS tt_1 ) UNION 
(SELECT DISTINCT tt_1.s AS s,4885219 AS p,3921200 AS o FROM t_3921200 AS tt_1 ) UNION 
(SELECT DISTINCT tt_1.s AS s,4885219 AS p,8007989 AS o FROM t_8007989 AS tt_1 ) UNION 
(SELECT DISTINCT tt_1.s AS s,4885219 AS p,2299993 AS o FROM t_2299993 AS tt_1 ) UNION 
(SELECT DISTINCT tt_1.s AS s,16561279 AS p,tt_1.o AS o FROM t_16561279 AS tt_1 ) UNION 
(SELECT DISTINCT tt_1.s AS s,4885219 AS p,16367420 AS o FROM t_16367420 AS tt_1 ) UNION 
(SELECT DISTINCT tt_1.s AS s,4885219 AS p,22142086 AS o FROM t_22142086 AS tt_1 ) UNION 
(SELECT DISTINCT tt_1.s AS s,4885219 AS p,3488252 AS o FROM t_3488252 AS tt_1 ) UNION 
(SELECT DISTINCT tt_1.s AS s,6997397 AS p,tt_1.o AS o FROM t_6997397 AS tt_1 ) UNION 
(SELECT DISTINCT tt_1.s AS s,683207 AS p,tt_1.o AS o FROM t_683207 AS tt_1 ) UNION 
(SELECT DISTINCT tt_1.s AS s,4885219 AS p,2986219 AS o FROM t_2986219 AS tt_1 ) UNION 
(SELECT DISTINCT tt_1.s AS s,4885219 AS p,16102024 AS o FROM t_16102024 AS tt_1 ) UNION 
(SELECT DISTINCT tt_1.s AS s,4885219 AS p,22556651 AS o FROM t_22556651 AS tt_1 ) UNION 
(SELECT DISTINCT tt_1.s AS s,4885219 AS p,22676495 AS o FROM t_22676495 AS tt_1 ) UNION 
(SELECT DISTINCT tt_1.s AS s,8759755 AS p,tt_1.o AS o FROM t_8759755 AS tt_1 ) UNION 
(SELECT DISTINCT tt_1.s AS s,13953271 AS p,tt_1.o AS o FROM t_13953271 AS tt_1 ) UNION 
(SELECT DISTINCT tt_1.s AS s,4885219 AS p,3811189 AS o FROM t_3811189 AS tt_1 ) UNION 
(SELECT DISTINCT tt_1.s AS s,4885219 AS p,14336006 AS o FROM t_14336006 AS tt_1 ) UNION 
(SELECT DISTINCT tt_1.s AS s,8165516 AS p,tt_1.o AS o FROM t_8165516 AS tt_1 ) UNION 
(SELECT DISTINCT tt_1.s AS s,22117849 AS p,tt_1.o AS o FROM t_22117849 AS tt_1 ) UNION 
(SELECT DISTINCT tt_1.s AS s,9725923 AS p,tt_1.o AS o FROM t_9725923 AS tt_1 ) UNION 
(SELECT DISTINCT tt_1.s AS s,4885219 AS p,21986346 AS o FROM t_21986346 AS tt_1 ) UNION 
(SELECT DISTINCT tt_1.s AS s,16328923 AS p,tt_1.o AS o FROM t_16328923 AS tt_1 ) UNION 
(SELECT DISTINCT tt_1.s AS s,4885219 AS p,11571344 AS o FROM t_11571344 AS tt_1 ) UNION 
(SELECT DISTINCT tt_1.s AS s,4885219 AS p,739164 AS o FROM t_739164 AS tt_1 ) UNION 
(SELECT DISTINCT tt_1.s AS s,1896150 AS p,tt_1.o AS o FROM t_1896150 AS tt_1 ) UNION 
(SELECT DISTINCT tt_1.s AS s,2486984 AS p,tt_1.o AS o FROM t_2486984 AS tt_1 ) UNION 
(SELECT DISTINCT tt_1.s AS s,13424281 AS p,tt_1.o AS o FROM t_13424281 AS tt_1 ) UNION 
(SELECT DISTINCT tt_1.s AS s,4885219 AS p,1372787 AS o FROM t_1372787 AS tt_1 ) UNION 
(SELECT DISTINCT tt_1.s AS s,4885219 AS p,23915985 AS o FROM t_23915985 AS tt_1 ) UNION 
(SELECT DISTINCT tt_1.s AS s,4885219 AS p,17619698 AS o FROM t_17619698 AS tt_1 ) UNION 
(SELECT DISTINCT tt_1.s AS s,12637441 AS p,tt_1.o AS o FROM t_12637441 AS tt_1 ) UNION 
(SELECT DISTINCT tt_1.s AS s,4885219 AS p,25234334 AS o FROM t_25234334 AS tt_1 ) UNION 
(SELECT DISTINCT tt_1.s AS s,4885219 AS p,1802885 AS o FROM t_1802885 AS tt_1 ) UNION 
(SELECT DISTINCT tt_1.s AS s,4885219 AS p,8727249 AS o FROM t_8727249 AS tt_1 ) UNION 
(SELECT DISTINCT tt_1.s AS s,4885219 AS p,21648803 AS o FROM t_21648803 AS tt_1 ) UNION 
(SELECT DISTINCT tt_1.s AS s,8852250 AS p,tt_1.o AS o FROM t_8852250 AS tt_1 ) UNION 
(SELECT DISTINCT tt_1.s AS s,4885219 AS p,21996890 AS o FROM t_21996890 AS tt_1 ) UNION 
(SELECT DISTINCT tt_1.s AS s,4885219 AS p,22651863 AS o FROM t_22651863 AS tt_1 ) UNION 
(SELECT DISTINCT tt_1.s AS s,4885219 AS p,18220402 AS o FROM t_18220402 AS tt_1 ) UNION 
(SELECT DISTINCT tt_1.s AS s,20166987 AS p,tt_1.o AS o FROM t_20166987 AS tt_1 ) UNION 
(SELECT DISTINCT tt_1.s AS s,11291713 AS p,tt_1.o AS o FROM t_11291713 AS tt_1 ) UNION 
(SELECT DISTINCT tt_1.s AS s,4885219 AS p,7574933 AS o FROM t_7574933 AS tt_1 ) UNION 
(SELECT DISTINCT tt_1.s AS s,6482488 AS p,tt_1.o AS o FROM t_6482488 AS tt_1 ) UNION 
(SELECT DISTINCT tt_1.s AS s,4885219 AS p,15549960 AS o FROM t_15549960 AS tt_1 ) UNION 
(SELECT DISTINCT tt_1.s AS s,19388482 AS p,tt_1.o AS o FROM t_19388482 AS tt_1 )
),uns_t AS  ((SELECT DISTINCT tt_1.s AS s,4885219 AS p,11571344 AS o FROM t_11571344 AS tt_1 ) UNION 
(SELECT DISTINCT tt_1.s AS s,4885219 AS p,12734835 AS o FROM t_12734835 AS tt_1 ) UNION 
(SELECT DISTINCT tt_1.s AS s,4885219 AS p,739164 AS o FROM t_739164 AS tt_1 ) UNION 
(SELECT DISTINCT tt_1.s AS s,4885219 AS p,2511159 AS o FROM t_2511159 AS tt_1 ) UNION 
(SELECT DISTINCT tt_1.s AS s,4885219 AS p,1291759 AS o FROM t_1291759 AS tt_1 ) UNION 
(SELECT DISTINCT tt_1.s AS s,4885219 AS p,1479080 AS o FROM t_1479080 AS tt_1 ) UNION 
(SELECT DISTINCT tt_1.s AS s,4885219 AS p,8420053 AS o FROM t_8420053 AS tt_1 ) UNION 
(SELECT DISTINCT tt_1.s AS s,4885219 AS p,1372787 AS o FROM t_1372787 AS tt_1 ) UNION 
(SELECT DISTINCT tt_1.s AS s,4885219 AS p,13372933 AS o FROM t_13372933 AS tt_1 ) UNION 
(SELECT DISTINCT tt_1.s AS s,4885219 AS p,21059061 AS o FROM t_21059061 AS tt_1 ) UNION 
(SELECT DISTINCT tt_1.s AS s,4885219 AS p,21637133 AS o FROM t_21637133 AS tt_1 ) UNION 
(SELECT DISTINCT tt_1.s AS s,4885219 AS p,23915985 AS o FROM t_23915985 AS tt_1 ) UNION 
(SELECT DISTINCT tt_1.s AS s,4885219 AS p,17619698 AS o FROM t_17619698 AS tt_1 ) UNION 
(SELECT DISTINCT tt_1.s AS s,4885219 AS p,4057117 AS o FROM t_4057117 AS tt_1 ) UNION 
(SELECT DISTINCT tt_1.s AS s,4885219 AS p,22507034 AS o FROM t_22507034 AS tt_1 ) UNION 
(SELECT DISTINCT tt_1.s AS s,4885219 AS p,26047100 AS o FROM t_26047100 AS tt_1 ) UNION 
(SELECT DISTINCT tt_1.s AS s,4885219 AS p,25234334 AS o FROM t_25234334 AS tt_1 ) UNION 
(SELECT DISTINCT tt_1.s AS s,4885219 AS p,24830358 AS o FROM t_24830358 AS tt_1 ) UNION 
(SELECT DISTINCT tt_1.s AS s,4885219 AS p,12718960 AS o FROM t_12718960 AS tt_1 ) UNION 
(SELECT DISTINCT tt_1.s AS s,4885219 AS p,3921200 AS o FROM t_3921200 AS tt_1 ) UNION 
(SELECT DISTINCT tt_1.s AS s,4885219 AS p,1802885 AS o FROM t_1802885 AS tt_1 ) UNION 
(SELECT DISTINCT tt_1.s AS s,4885219 AS p,8007989 AS o FROM t_8007989 AS tt_1 ) UNION 
(SELECT DISTINCT tt_1.s AS s,4885219 AS p,8727249 AS o FROM t_8727249 AS tt_1 ) UNION 
(SELECT DISTINCT tt_1.s AS s,4885219 AS p,21648803 AS o FROM t_21648803 AS tt_1 ) UNION 
(SELECT DISTINCT tt_1.s AS s,4885219 AS p,2299993 AS o FROM t_2299993 AS tt_1 ) UNION 
(SELECT DISTINCT tt_1.s AS s,4885219 AS p,21996890 AS o FROM t_21996890 AS tt_1 ) UNION 
(SELECT DISTINCT tt_1.s AS s,4885219 AS p,16367420 AS o FROM t_16367420 AS tt_1 ) UNION 
(SELECT DISTINCT tt_1.s AS s,4885219 AS p,22142086 AS o FROM t_22142086 AS tt_1 ) UNION 
(SELECT DISTINCT tt_1.s AS s,4885219 AS p,22651863 AS o FROM t_22651863 AS tt_1 ) UNION 
(SELECT DISTINCT tt_1.s AS s,4885219 AS p,18220402 AS o FROM t_18220402 AS tt_1 ) UNION 
(SELECT DISTINCT tt_1.s AS s,4885219 AS p,7574933 AS o FROM t_7574933 AS tt_1 ) UNION 
(SELECT DISTINCT tt_1.s AS s,4885219 AS p,3488252 AS o FROM t_3488252 AS tt_1 ) UNION 
(SELECT DISTINCT tt_1.s AS s,4885219 AS p,2986219 AS o FROM t_2986219 AS tt_1 ) UNION 
(SELECT DISTINCT tt_1.s AS s,4885219 AS p,15549960 AS o FROM t_15549960 AS tt_1 ) UNION 
(SELECT DISTINCT tt_1.s AS s,4885219 AS p,16102024 AS o FROM t_16102024 AS tt_1 ) UNION 
(SELECT DISTINCT tt_1.s AS s,4885219 AS p,22556651 AS o FROM t_22556651 AS tt_1 ) UNION 
(SELECT DISTINCT tt_1.s AS s,4885219 AS p,22676495 AS o FROM t_22676495 AS tt_1 ) UNION 
(SELECT DISTINCT tt_1.s AS s,4885219 AS p,22552132 AS o FROM t_22552132 AS tt_1 ) UNION 
(SELECT DISTINCT tt_1.s AS s,4885219 AS p,3492502 AS o FROM t_3492502 AS tt_1 ) UNION 
(SELECT DISTINCT tt_1.s AS s,4885219 AS p,13890787 AS o FROM t_13890787 AS tt_1 ) UNION 
(SELECT DISTINCT tt_1.s AS s,4885219 AS p,3849344 AS o FROM t_3849344 AS tt_1 ) UNION 
(SELECT DISTINCT tt_1.s AS s,4885219 AS p,18385456 AS o FROM t_18385456 AS tt_1 ) UNION 
(SELECT DISTINCT tt_1.s AS s,4885219 AS p,3811189 AS o FROM t_3811189 AS tt_1 ) UNION 
(SELECT DISTINCT tt_1.s AS s,4885219 AS p,14336006 AS o FROM t_14336006 AS tt_1 ) UNION 
(SELECT DISTINCT tt_1.s AS s,4885219 AS p,21986346 AS o FROM t_21986346 AS tt_1 )
) SELECT DISTINCT pt3827.s AS att_X,pt3827.o AS att_OX,pt3828.o AS att_EX,pt3834.o AS att_Y,pt3835.o AS att_OY,pt3837.o AS att_TY FROM t_8759755 AS pt3827,t_9725923 AS pt3828,t_683207 AS pt3829,gen_t AS pt3830,uns_t AS pt3831,t_16561279 AS pt3832,t_8165516 AS pt3833,t_2486984 AS pt3834,t_8759755 AS pt3835,t_683207 AS pt3836,t_6997397 AS pt3837 WHERE pt3833.o='25234334' AND pt3830.p=pt3832.s AND pt3832.o=pt3833.s AND pt3832.o=pt3831.o AND pt3833.s=pt3831.o AND pt3828.s=pt3830.s AND pt3828.s=pt3827.s AND pt3828.s=pt3834.s AND pt3830.s=pt3827.s AND pt3830.s=pt3834.s AND pt3827.s=pt3834.s AND pt3827.o=pt3829.s AND pt3835.s=pt3834.o AND pt3835.s=pt3837.s AND pt3834.o=pt3837.s AND pt3835.o=pt3836.s AND pt3830.o=pt3836.o AND pt3830.o=pt3829.o AND pt3830.o=pt3831.s AND pt3836.o=pt3829.o AND pt3836.o=pt3831.s AND pt3829.o=pt3831.s
Q10

0
WITH gen_t AS  ((SELECT DISTINCT tt_1.s AS s,4885219 AS p,22552132 AS o FROM t_22552132 AS tt_1 ) UNION 
(SELECT DISTINCT tt_1.s AS s,4885219 AS p,3492502 AS o FROM t_3492502 AS tt_1 ) UNION 
(SELECT DISTINCT tt_1.s AS s,4885219 AS p,13890787 AS o FROM t_13890787 AS tt_1 ) UNION 
(SELECT DISTINCT tt_1.s AS s,4885219 AS p,3849344 AS o FROM t_3849344 AS tt_1 ) UNION 
(SELECT DISTINCT tt_1.s AS s,4885219 AS p,18385456 AS o FROM t_18385456 AS tt_1 ) UNION 
(SELECT DISTINCT tt_1.s AS s,4885219 AS p,12734835 AS o FROM t_12734835 AS tt_1 ) UNION 
(SELECT DISTINCT tt_1.s AS s,4885219 AS p,2511159 AS o FROM t_2511159 AS tt_1 ) UNION 
(SELECT DISTINCT tt_1.s AS s,4885219 AS p,1291759 AS o FROM t_1291759 AS tt_1 ) UNION 
(SELECT DISTINCT tt_1.s AS s,20166987 AS p,tt_1.o AS o FROM t_20166987 AS tt_1 ) UNION 
(SELECT DISTINCT tt_1.s AS s,4885219 AS p,1479080 AS o FROM t_1479080 AS tt_1 ) UNION 
(SELECT DISTINCT tt_1.s AS s,11291713 AS p,tt_1.o AS o FROM t_11291713 AS tt_1 ) UNION 
(SELECT DISTINCT tt_1.s AS s,4885219 AS p,8420053 AS o FROM t_8420053 AS tt_1 ) UNION 
(SELECT DISTINCT tt_1.s AS s,6997397 AS p,tt_1.o AS o FROM t_6997397 AS tt_1 ) UNION 
(SELECT DISTINCT tt_1.s AS s,4885219 AS p,13372933 AS o FROM t_13372933 AS tt_1 ) UNION 
(SELECT DISTINCT tt_1.s AS s,683207 AS p,tt_1.o AS o FROM t_683207 AS tt_1 ) UNION 
(SELECT DISTINCT tt_1.s AS s,4885219 AS p,21059061 AS o FROM t_21059061 AS tt_1 ) UNION 
(SELECT DISTINCT tt_1.s AS s,4885219 AS p,21637133 AS o FROM t_21637133 AS tt_1 ) UNION 
(SELECT DISTINCT tt_1.s AS s,19388482 AS p,tt_1.o AS o FROM t_19388482 AS tt_1 ) UNION 
(SELECT DISTINCT tt_1.s AS s,4885219 AS p,4057117 AS o FROM t_4057117 AS tt_1 ) UNION 
(SELECT DISTINCT tt_1.s AS s,4885219 AS p,22507034 AS o FROM t_22507034 AS tt_1 ) UNION 
(SELECT DISTINCT tt_1.s AS s,4885219 AS p,26047100 AS o FROM t_26047100 AS tt_1 ) UNION 
(SELECT DISTINCT tt_1.s AS s,17292348 AS p,tt_1.o AS o FROM t_17292348 AS tt_1 ) UNION 
(SELECT DISTINCT tt_1.s AS s,4885219 AS p,24830358 AS o FROM t_24830358 AS tt_1 ) UNION 
(SELECT DISTINCT tt_1.s AS s,4885219 AS p,12718960 AS o FROM t_12718960 AS tt_1 ) UNION 
(SELECT DISTINCT tt_1.s AS s,13953271 AS p,tt_1.o AS o FROM t_13953271 AS tt_1 ) UNION 
(SELECT DISTINCT tt_1.s AS s,4885219 AS p,3921200 AS o FROM t_3921200 AS tt_1 ) UNION 
(SELECT DISTINCT tt_1.s AS s,9725923 AS p,tt_1.o AS o FROM t_9725923 AS tt_1 ) UNION 
(SELECT DISTINCT tt_1.s AS s,4885219 AS p,8007989 AS o FROM t_8007989 AS tt_1 ) UNION 
(SELECT DISTINCT tt_1.s AS s,4885219 AS p,2299993 AS o FROM t_2299993 AS tt_1 ) UNION 
(SELECT DISTINCT tt_1.s AS s,4885219 AS p,16367420 AS o FROM t_16367420 AS tt_1 ) UNION 
(SELECT DISTINCT tt_1.s AS s,4885219 AS p,22142086 AS o FROM t_22142086 AS tt_1 ) UNION 
(SELECT DISTINCT tt_1.s AS s,13424281 AS p,tt_1.o AS o FROM t_13424281 AS tt_1 ) UNION 
(SELECT DISTINCT tt_1.s AS s,2486984 AS p,tt_1.o AS o FROM t_2486984 AS tt_1 ) UNION 
(SELECT DISTINCT tt_1.s AS s,4885219 AS p,3488252 AS o FROM t_3488252 AS tt_1 ) UNION 
(SELECT DISTINCT tt_1.s AS s,4885219 AS p,2986219 AS o FROM t_2986219 AS tt_1 ) UNION 
(SELECT DISTINCT tt_1.s AS s,4885219 AS p,16102024 AS o FROM t_16102024 AS tt_1 ) UNION 
(SELECT DISTINCT tt_1.s AS s,4885219 AS p,22556651 AS o FROM t_22556651 AS tt_1 ) UNION 
(SELECT DISTINCT tt_1.s AS s,4885219 AS p,22676495 AS o FROM t_22676495 AS tt_1 ) UNION 
(SELECT DISTINCT tt_1.s AS s,2153909 AS p,tt_1.o AS o FROM t_2153909 AS tt_1 ) UNION 
(SELECT DISTINCT tt_1.s AS s,4885219 AS p,3811189 AS o FROM t_3811189 AS tt_1 ) UNION 
(SELECT DISTINCT tt_1.s AS s,4885219 AS p,14336006 AS o FROM t_14336006 AS tt_1 ) UNION 
(SELECT DISTINCT tt_1.s AS s,4885219 AS p,21986346 AS o FROM t_21986346 AS tt_1 ) UNION 
(SELECT DISTINCT tt_1.s AS s,4885219 AS p,11571344 AS o FROM t_11571344 AS tt_1 ) UNION 
(SELECT DISTINCT tt_1.s AS s,4885219 AS p,739164 AS o FROM t_739164 AS tt_1 ) UNION 
(SELECT DISTINCT tt_1.s AS s,16561279 AS p,tt_1.o AS o FROM t_16561279 AS tt_1 ) UNION 
(SELECT DISTINCT tt_1.s AS s,8852250 AS p,tt_1.o AS o FROM t_8852250 AS tt_1 ) UNION 
(SELECT DISTINCT tt_1.s AS s,4885219 AS p,1372787 AS o FROM t_1372787 AS tt_1 ) UNION 
(SELECT DISTINCT tt_1.s AS s,6482488 AS p,tt_1.o AS o FROM t_6482488 AS tt_1 ) UNION 
(SELECT DISTINCT tt_1.s AS s,4885219 AS p,23915985 AS o FROM t_23915985 AS tt_1 ) UNION 
(SELECT DISTINCT tt_1.s AS s,4885219 AS p,17619698 AS o FROM t_17619698 AS tt_1 ) UNION 
(SELECT DISTINCT tt_1.s AS s,4885219 AS p,25234334 AS o FROM t_25234334 AS tt_1 ) UNION 
(SELECT DISTINCT tt_1.s AS s,8759755 AS p,tt_1.o AS o FROM t_8759755 AS tt_1 ) UNION 
(SELECT DISTINCT tt_1.s AS s,4885219 AS p,1802885 AS o FROM t_1802885 AS tt_1 ) UNION 
(SELECT DISTINCT tt_1.s AS s,8165516 AS p,tt_1.o AS o FROM t_8165516 AS tt_1 ) UNION 
(SELECT DISTINCT tt_1.s AS s,22117849 AS p,tt_1.o AS o FROM t_22117849 AS tt_1 ) UNION 
(SELECT DISTINCT tt_1.s AS s,16328923 AS p,tt_1.o AS o FROM t_16328923 AS tt_1 ) UNION 
(SELECT DISTINCT tt_1.s AS s,1014951 AS p,tt_1.o AS o FROM t_1014951 AS tt_1 ) UNION 
(SELECT DISTINCT tt_1.s AS s,4885219 AS p,8727249 AS o FROM t_8727249 AS tt_1 ) UNION 
(SELECT DISTINCT tt_1.s AS s,4885219 AS p,21648803 AS o FROM t_21648803 AS tt_1 ) UNION 
(SELECT DISTINCT tt_1.s AS s,4885219 AS p,21996890 AS o FROM t_21996890 AS tt_1 ) UNION 
(SELECT DISTINCT tt_1.s AS s,1896150 AS p,tt_1.o AS o FROM t_1896150 AS tt_1 ) UNION 
(SELECT DISTINCT tt_1.s AS s,993705 AS p,tt_1.o AS o FROM t_993705 AS tt_1 ) UNION 
(SELECT DISTINCT tt_1.s AS s,4885219 AS p,22651863 AS o FROM t_22651863 AS tt_1 ) UNION 
(SELECT DISTINCT tt_1.s AS s,4885219 AS p,18220402 AS o FROM t_18220402 AS tt_1 ) UNION 
(SELECT DISTINCT tt_1.s AS s,4885219 AS p,7574933 AS o FROM t_7574933 AS tt_1 ) UNION 
(SELECT DISTINCT tt_1.s AS s,4885219 AS p,15549960 AS o FROM t_15549960 AS tt_1 ) UNION 
(SELECT DISTINCT tt_1.s AS s,12637441 AS p,tt_1.o AS o FROM t_12637441 AS tt_1 ) UNION 
(SELECT DISTINCT tt_1.s AS s,14400976 AS p,tt_1.o AS o FROM t_14400976 AS tt_1 )
) SELECT DISTINCT pt4851.s AS att_X FROM gen_t AS pt4851 
Q11

0
WITH gen_t AS  ((SELECT DISTINCT tt_1.s AS s,4885219 AS p,22552132 AS o FROM t_22552132 AS tt_1 ) UNION 
(SELECT DISTINCT tt_1.s AS s,4885219 AS p,3492502 AS o FROM t_3492502 AS tt_1 ) UNION 
(SELECT DISTINCT tt_1.s AS s,4885219 AS p,13890787 AS o FROM t_13890787 AS tt_1 ) UNION 
(SELECT DISTINCT tt_1.s AS s,4885219 AS p,3849344 AS o FROM t_3849344 AS tt_1 ) UNION 
(SELECT DISTINCT tt_1.s AS s,4885219 AS p,18385456 AS o FROM t_18385456 AS tt_1 ) UNION 
(SELECT DISTINCT tt_1.s AS s,4885219 AS p,12734835 AS o FROM t_12734835 AS tt_1 ) UNION 
(SELECT DISTINCT tt_1.s AS s,4885219 AS p,2511159 AS o FROM t_2511159 AS tt_1 ) UNION 
(SELECT DISTINCT tt_1.s AS s,4885219 AS p,1291759 AS o FROM t_1291759 AS tt_1 ) UNION 
(SELECT DISTINCT tt_1.s AS s,20166987 AS p,tt_1.o AS o FROM t_20166987 AS tt_1 ) UNION 
(SELECT DISTINCT tt_1.s AS s,4885219 AS p,1479080 AS o FROM t_1479080 AS tt_1 ) UNION 
(SELECT DISTINCT tt_1.s AS s,11291713 AS p,tt_1.o AS o FROM t_11291713 AS tt_1 ) UNION 
(SELECT DISTINCT tt_1.s AS s,4885219 AS p,8420053 AS o FROM t_8420053 AS tt_1 ) UNION 
(SELECT DISTINCT tt_1.s AS s,6997397 AS p,tt_1.o AS o FROM t_6997397 AS tt_1 ) UNION 
(SELECT DISTINCT tt_1.s AS s,4885219 AS p,13372933 AS o FROM t_13372933 AS tt_1 ) UNION 
(SELECT DISTINCT tt_1.s AS s,683207 AS p,tt_1.o AS o FROM t_683207 AS tt_1 ) UNION 
(SELECT DISTINCT tt_1.s AS s,4885219 AS p,21059061 AS o FROM t_21059061 AS tt_1 ) UNION 
(SELECT DISTINCT tt_1.s AS s,4885219 AS p,21637133 AS o FROM t_21637133 AS tt_1 ) UNION 
(SELECT DISTINCT tt_1.s AS s,19388482 AS p,tt_1.o AS o FROM t_19388482 AS tt_1 ) UNION 
(SELECT DISTINCT tt_1.s AS s,4885219 AS p,4057117 AS o FROM t_4057117 AS tt_1 ) UNION 
(SELECT DISTINCT tt_1.s AS s,4885219 AS p,22507034 AS o FROM t_22507034 AS tt_1 ) UNION 
(SELECT DISTINCT tt_1.s AS s,4885219 AS p,26047100 AS o FROM t_26047100 AS tt_1 ) UNION 
(SELECT DISTINCT tt_1.s AS s,17292348 AS p,tt_1.o AS o FROM t_17292348 AS tt_1 ) UNION 
(SELECT DISTINCT tt_1.s AS s,4885219 AS p,24830358 AS o FROM t_24830358 AS tt_1 ) UNION 
(SELECT DISTINCT tt_1.s AS s,4885219 AS p,12718960 AS o FROM t_12718960 AS tt_1 ) UNION 
(SELECT DISTINCT tt_1.s AS s,13953271 AS p,tt_1.o AS o FROM t_13953271 AS tt_1 ) UNION 
(SELECT DISTINCT tt_1.s AS s,4885219 AS p,3921200 AS o FROM t_3921200 AS tt_1 ) UNION 
(SELECT DISTINCT tt_1.s AS s,9725923 AS p,tt_1.o AS o FROM t_9725923 AS tt_1 ) UNION 
(SELECT DISTINCT tt_1.s AS s,4885219 AS p,8007989 AS o FROM t_8007989 AS tt_1 ) UNION 
(SELECT DISTINCT tt_1.s AS s,4885219 AS p,2299993 AS o FROM t_2299993 AS tt_1 ) UNION 
(SELECT DISTINCT tt_1.s AS s,4885219 AS p,16367420 AS o FROM t_16367420 AS tt_1 ) UNION 
(SELECT DISTINCT tt_1.s AS s,4885219 AS p,22142086 AS o FROM t_22142086 AS tt_1 ) UNION 
(SELECT DISTINCT tt_1.s AS s,13424281 AS p,tt_1.o AS o FROM t_13424281 AS tt_1 ) UNION 
(SELECT DISTINCT tt_1.s AS s,2486984 AS p,tt_1.o AS o FROM t_2486984 AS tt_1 ) UNION 
(SELECT DISTINCT tt_1.s AS s,4885219 AS p,3488252 AS o FROM t_3488252 AS tt_1 ) UNION 
(SELECT DISTINCT tt_1.s AS s,4885219 AS p,2986219 AS o FROM t_2986219 AS tt_1 ) UNION 
(SELECT DISTINCT tt_1.s AS s,4885219 AS p,16102024 AS o FROM t_16102024 AS tt_1 ) UNION 
(SELECT DISTINCT tt_1.s AS s,4885219 AS p,22556651 AS o FROM t_22556651 AS tt_1 ) UNION 
(SELECT DISTINCT tt_1.s AS s,4885219 AS p,22676495 AS o FROM t_22676495 AS tt_1 ) UNION 
(SELECT DISTINCT tt_1.s AS s,2153909 AS p,tt_1.o AS o FROM t_2153909 AS tt_1 ) UNION 
(SELECT DISTINCT tt_1.s AS s,4885219 AS p,3811189 AS o FROM t_3811189 AS tt_1 ) UNION 
(SELECT DISTINCT tt_1.s AS s,4885219 AS p,14336006 AS o FROM t_14336006 AS tt_1 ) UNION 
(SELECT DISTINCT tt_1.s AS s,4885219 AS p,21986346 AS o FROM t_21986346 AS tt_1 ) UNION 
(SELECT DISTINCT tt_1.s AS s,4885219 AS p,11571344 AS o FROM t_11571344 AS tt_1 ) UNION 
(SELECT DISTINCT tt_1.s AS s,4885219 AS p,739164 AS o FROM t_739164 AS tt_1 ) UNION 
(SELECT DISTINCT tt_1.s AS s,16561279 AS p,tt_1.o AS o FROM t_16561279 AS tt_1 ) UNION 
(SELECT DISTINCT tt_1.s AS s,8852250 AS p,tt_1.o AS o FROM t_8852250 AS tt_1 ) UNION 
(SELECT DISTINCT tt_1.s AS s,4885219 AS p,1372787 AS o FROM t_1372787 AS tt_1 ) UNION 
(SELECT DISTINCT tt_1.s AS s,6482488 AS p,tt_1.o AS o FROM t_6482488 AS tt_1 ) UNION 
(SELECT DISTINCT tt_1.s AS s,4885219 AS p,23915985 AS o FROM t_23915985 AS tt_1 ) UNION 
(SELECT DISTINCT tt_1.s AS s,4885219 AS p,17619698 AS o FROM t_17619698 AS tt_1 ) UNION 
(SELECT DISTINCT tt_1.s AS s,4885219 AS p,25234334 AS o FROM t_25234334 AS tt_1 ) UNION 
(SELECT DISTINCT tt_1.s AS s,8759755 AS p,tt_1.o AS o FROM t_8759755 AS tt_1 ) UNION 
(SELECT DISTINCT tt_1.s AS s,4885219 AS p,1802885 AS o FROM t_1802885 AS tt_1 ) UNION 
(SELECT DISTINCT tt_1.s AS s,8165516 AS p,tt_1.o AS o FROM t_8165516 AS tt_1 ) UNION 
(SELECT DISTINCT tt_1.s AS s,22117849 AS p,tt_1.o AS o FROM t_22117849 AS tt_1 ) UNION 
(SELECT DISTINCT tt_1.s AS s,16328923 AS p,tt_1.o AS o FROM t_16328923 AS tt_1 ) UNION 
(SELECT DISTINCT tt_1.s AS s,1014951 AS p,tt_1.o AS o FROM t_1014951 AS tt_1 ) UNION 
(SELECT DISTINCT tt_1.s AS s,4885219 AS p,8727249 AS o FROM t_8727249 AS tt_1 ) UNION 
(SELECT DISTINCT tt_1.s AS s,4885219 AS p,21648803 AS o FROM t_21648803 AS tt_1 ) UNION 
(SELECT DISTINCT tt_1.s AS s,4885219 AS p,21996890 AS o FROM t_21996890 AS tt_1 ) UNION 
(SELECT DISTINCT tt_1.s AS s,1896150 AS p,tt_1.o AS o FROM t_1896150 AS tt_1 ) UNION 
(SELECT DISTINCT tt_1.s AS s,993705 AS p,tt_1.o AS o FROM t_993705 AS tt_1 ) UNION 
(SELECT DISTINCT tt_1.s AS s,4885219 AS p,22651863 AS o FROM t_22651863 AS tt_1 ) UNION 
(SELECT DISTINCT tt_1.s AS s,4885219 AS p,18220402 AS o FROM t_18220402 AS tt_1 ) UNION 
(SELECT DISTINCT tt_1.s AS s,4885219 AS p,7574933 AS o FROM t_7574933 AS tt_1 ) UNION 
(SELECT DISTINCT tt_1.s AS s,4885219 AS p,15549960 AS o FROM t_15549960 AS tt_1 ) UNION 
(SELECT DISTINCT tt_1.s AS s,12637441 AS p,tt_1.o AS o FROM t_12637441 AS tt_1 ) UNION 
(SELECT DISTINCT tt_1.s AS s,14400976 AS p,tt_1.o AS o FROM t_14400976 AS tt_1 )
) SELECT DISTINCT pt5372.s AS att_X FROM t_993705 AS pt5371,gen_t AS pt5372,t_8759755 AS pt5373 WHERE pt5371.o='1896150' AND pt5373.o='8189427' AND pt5371.s=pt5372.p AND pt5373.s=pt5372.s
Q12

0
WITH gen_t AS  ((SELECT DISTINCT tt_1.s AS s,2153909 AS p,tt_1.o AS o FROM t_2153909 AS tt_1 ) UNION 
(SELECT DISTINCT tt_1.s AS s,4885219 AS p,22552132 AS o FROM t_22552132 AS tt_1 ) UNION 
(SELECT DISTINCT tt_1.s AS s,4885219 AS p,3492502 AS o FROM t_3492502 AS tt_1 ) UNION 
(SELECT DISTINCT tt_1.s AS s,4885219 AS p,13890787 AS o FROM t_13890787 AS tt_1 ) UNION 
(SELECT DISTINCT tt_1.s AS s,4885219 AS p,3849344 AS o FROM t_3849344 AS tt_1 ) UNION 
(SELECT DISTINCT tt_1.s AS s,4885219 AS p,18385456 AS o FROM t_18385456 AS tt_1 ) UNION 
(SELECT DISTINCT tt_1.s AS s,4885219 AS p,12734835 AS o FROM t_12734835 AS tt_1 ) UNION 
(SELECT DISTINCT tt_1.s AS s,16561279 AS p,tt_1.o AS o FROM t_16561279 AS tt_1 ) UNION 
(SELECT DISTINCT tt_1.s AS s,8852250 AS p,tt_1.o AS o FROM t_8852250 AS tt_1 ) UNION 
(SELECT DISTINCT tt_1.s AS s,4885219 AS p,2511159 AS o FROM t_2511159 AS tt_1 ) UNION 
(SELECT DISTINCT tt_1.s AS s,4885219 AS p,1291759 AS o FROM t_1291759 AS tt_1 ) UNION 
(SELECT DISTINCT tt_1.s AS s,4885219 AS p,1479080 AS o FROM t_1479080 AS tt_1 ) UNION 
(SELECT DISTINCT tt_1.s AS s,4885219 AS p,8420053 AS o FROM t_8420053 AS tt_1 ) UNION 
(SELECT DISTINCT tt_1.s AS s,6482488 AS p,tt_1.o AS o FROM t_6482488 AS tt_1 ) UNION 
(SELECT DISTINCT tt_1.s AS s,4885219 AS p,13372933 AS o FROM t_13372933 AS tt_1 ) UNION 
(SELECT DISTINCT tt_1.s AS s,4885219 AS p,21059061 AS o FROM t_21059061 AS tt_1 ) UNION 
(SELECT DISTINCT tt_1.s AS s,4885219 AS p,21637133 AS o FROM t_21637133 AS tt_1 ) UNION 
(SELECT DISTINCT tt_1.s AS s,4885219 AS p,4057117 AS o FROM t_4057117 AS tt_1 ) UNION 
(SELECT DISTINCT tt_1.s AS s,4885219 AS p,22507034 AS o FROM t_22507034 AS tt_1 ) UNION 
(SELECT DISTINCT tt_1.s AS s,4885219 AS p,26047100 AS o FROM t_26047100 AS tt_1 ) UNION 
(SELECT DISTINCT tt_1.s AS s,4885219 AS p,24830358 AS o FROM t_24830358 AS tt_1 ) UNION 
(SELECT DISTINCT tt_1.s AS s,4885219 AS p,12718960 AS o FROM t_12718960 AS tt_1 ) UNION 
(SELECT DISTINCT tt_1.s AS s,8759755 AS p,tt_1.o AS o FROM t_8759755 AS tt_1 ) UNION 
(SELECT DISTINCT tt_1.s AS s,4885219 AS p,3921200 AS o FROM t_3921200 AS tt_1 ) UNION 
(SELECT DISTINCT tt_1.s AS s,8165516 AS p,tt_1.o AS o FROM t_8165516 AS tt_1 ) UNION 
(SELECT DISTINCT tt_1.s AS s,22117849 AS p,tt_1.o AS o FROM t_22117849 AS tt_1 ) UNION 
(SELECT DISTINCT tt_1.s AS s,16328923 AS p,tt_1.o AS o FROM t_16328923 AS tt_1 ) UNION 
(SELECT DISTINCT tt_1.s AS s,1014951 AS p,tt_1.o AS o FROM t_1014951 AS tt_1 ) UNION 
(SELECT DISTINCT tt_1.s AS s,4885219 AS p,8007989 AS o FROM t_8007989 AS tt_1 ) UNION 
(SELECT DISTINCT tt_1.s AS s,4885219 AS p,2299993 AS o FROM t_2299993 AS tt_1 ) UNION 
(SELECT DISTINCT tt_1.s AS s,1896150 AS p,tt_1.o AS o FROM t_1896150 AS tt_1 ) UNION 
(SELECT DISTINCT tt_1.s AS s,4885219 AS p,16367420 AS o FROM t_16367420 AS tt_1 ) UNION 
(SELECT DISTINCT tt_1.s AS s,993705 AS p,tt_1.o AS o FROM t_993705 AS tt_1 ) UNION 
(SELECT DISTINCT tt_1.s AS s,4885219 AS p,22142086 AS o FROM t_22142086 AS tt_1 ) UNION 
(SELECT DISTINCT tt_1.s AS s,4885219 AS p,3488252 AS o FROM t_3488252 AS tt_1 ) UNION 
(SELECT DISTINCT tt_1.s AS s,4885219 AS p,2986219 AS o FROM t_2986219 AS tt_1 ) UNION 
(SELECT DISTINCT tt_1.s AS s,12637441 AS p,tt_1.o AS o FROM t_12637441 AS tt_1 ) UNION 
(SELECT DISTINCT tt_1.s AS s,14400976 AS p,tt_1.o AS o FROM t_14400976 AS tt_1 ) UNION 
(SELECT DISTINCT tt_1.s AS s,4885219 AS p,16102024 AS o FROM t_16102024 AS tt_1 ) UNION 
(SELECT DISTINCT tt_1.s AS s,4885219 AS p,22556651 AS o FROM t_22556651 AS tt_1 ) UNION 
(SELECT DISTINCT tt_1.s AS s,4885219 AS p,22676495 AS o FROM t_22676495 AS tt_1 ) UNION 
(SELECT DISTINCT tt_1.s AS s,4885219 AS p,3811189 AS o FROM t_3811189 AS tt_1 ) UNION 
(SELECT DISTINCT tt_1.s AS s,4885219 AS p,14336006 AS o FROM t_14336006 AS tt_1 ) UNION 
(SELECT DISTINCT tt_1.s AS s,4885219 AS p,21986346 AS o FROM t_21986346 AS tt_1 ) UNION 
(SELECT DISTINCT tt_1.s AS s,4885219 AS p,11571344 AS o FROM t_11571344 AS tt_1 ) UNION 
(SELECT DISTINCT tt_1.s AS s,4885219 AS p,739164 AS o FROM t_739164 AS tt_1 ) UNION 
(SELECT DISTINCT tt_1.s AS s,20166987 AS p,tt_1.o AS o FROM t_20166987 AS tt_1 ) UNION 
(SELECT DISTINCT tt_1.s AS s,11291713 AS p,tt_1.o AS o FROM t_11291713 AS tt_1 ) UNION 
(SELECT DISTINCT tt_1.s AS s,4885219 AS p,1372787 AS o FROM t_1372787 AS tt_1 ) UNION 
(SELECT DISTINCT tt_1.s AS s,6997397 AS p,tt_1.o AS o FROM t_6997397 AS tt_1 ) UNION 
(SELECT DISTINCT tt_1.s AS s,683207 AS p,tt_1.o AS o FROM t_683207 AS tt_1 ) UNION 
(SELECT DISTINCT tt_1.s AS s,19388482 AS p,tt_1.o AS o FROM t_19388482 AS tt_1 ) UNION 
(SELECT DISTINCT tt_1.s AS s,4885219 AS p,23915985 AS o FROM t_23915985 AS tt_1 ) UNION 
(SELECT DISTINCT tt_1.s AS s,4885219 AS p,17619698 AS o FROM t_17619698 AS tt_1 ) UNION 
(SELECT DISTINCT tt_1.s AS s,4885219 AS p,25234334 AS o FROM t_25234334 AS tt_1 ) UNION 
(SELECT DISTINCT tt_1.s AS s,17292348 AS p,tt_1.o AS o FROM t_17292348 AS tt_1 ) UNION 
(SELECT DISTINCT tt_1.s AS s,13953271 AS p,tt_1.o AS o FROM t_13953271 AS tt_1 ) UNION 
(SELECT DISTINCT tt_1.s AS s,4885219 AS p,1802885 AS o FROM t_1802885 AS tt_1 ) UNION 
(SELECT DISTINCT tt_1.s AS s,9725923 AS p,tt_1.o AS o FROM t_9725923 AS tt_1 ) UNION 
(SELECT DISTINCT tt_1.s AS s,4885219 AS p,8727249 AS o FROM t_8727249 AS tt_1 ) UNION 
(SELECT DISTINCT tt_1.s AS s,4885219 AS p,21648803 AS o FROM t_21648803 AS tt_1 ) UNION 
(SELECT DISTINCT tt_1.s AS s,4885219 AS p,21996890 AS o FROM t_21996890 AS tt_1 ) UNION 
(SELECT DISTINCT tt_1.s AS s,4885219 AS p,22651863 AS o FROM t_22651863 AS tt_1 ) UNION 
(SELECT DISTINCT tt_1.s AS s,4885219 AS p,18220402 AS o FROM t_18220402 AS tt_1 ) UNION 
(SELECT DISTINCT tt_1.s AS s,2486984 AS p,tt_1.o AS o FROM t_2486984 AS tt_1 ) UNION 
(SELECT DISTINCT tt_1.s AS s,13424281 AS p,tt_1.o AS o FROM t_13424281 AS tt_1 ) UNION 
(SELECT DISTINCT tt_1.s AS s,4885219 AS p,7574933 AS o FROM t_7574933 AS tt_1 ) UNION 
(SELECT DISTINCT tt_1.s AS s,4885219 AS p,15549960 AS o FROM t_15549960 AS tt_1 )
) SELECT DISTINCT pt5925.s AS att_X,pt5926.s AS att_Y,pt5925.p AS att_P FROM gen_t AS pt5925,gen_t AS pt5926 WHERE pt5925.o='8189427' AND pt5926.o='8189427' AND pt5925.p=pt5926.p
Q13

0
WITH gen_t AS  ((SELECT DISTINCT tt_1.s AS s,2153909 AS p,tt_1.o AS o FROM t_2153909 AS tt_1 ) UNION 
(SELECT DISTINCT tt_1.s AS s,4885219 AS p,22552132 AS o FROM t_22552132 AS tt_1 ) UNION 
(SELECT DISTINCT tt_1.s AS s,4885219 AS p,3492502 AS o FROM t_3492502 AS tt_1 ) UNION 
(SELECT DISTINCT tt_1.s AS s,4885219 AS p,13890787 AS o FROM t_13890787 AS tt_1 ) UNION 
(SELECT DISTINCT tt_1.s AS s,4885219 AS p,3849344 AS o FROM t_3849344 AS tt_1 ) UNION 
(SELECT DISTINCT tt_1.s AS s,4885219 AS p,18385456 AS o FROM t_18385456 AS tt_1 ) UNION 
(SELECT DISTINCT tt_1.s AS s,4885219 AS p,12734835 AS o FROM t_12734835 AS tt_1 ) UNION 
(SELECT DISTINCT tt_1.s AS s,16561279 AS p,tt_1.o AS o FROM t_16561279 AS tt_1 ) UNION 
(SELECT DISTINCT tt_1.s AS s,8852250 AS p,tt_1.o AS o FROM t_8852250 AS tt_1 ) UNION 
(SELECT DISTINCT tt_1.s AS s,4885219 AS p,2511159 AS o FROM t_2511159 AS tt_1 ) UNION 
(SELECT DISTINCT tt_1.s AS s,4885219 AS p,1291759 AS o FROM t_1291759 AS tt_1 ) UNION 
(SELECT DISTINCT tt_1.s AS s,4885219 AS p,1479080 AS o FROM t_1479080 AS tt_1 ) UNION 
(SELECT DISTINCT tt_1.s AS s,4885219 AS p,8420053 AS o FROM t_8420053 AS tt_1 ) UNION 
(SELECT DISTINCT tt_1.s AS s,6482488 AS p,tt_1.o AS o FROM t_6482488 AS tt_1 ) UNION 
(SELECT DISTINCT tt_1.s AS s,4885219 AS p,13372933 AS o FROM t_13372933 AS tt_1 ) UNION 
(SELECT DISTINCT tt_1.s AS s,4885219 AS p,21059061 AS o FROM t_21059061 AS tt_1 ) UNION 
(SELECT DISTINCT tt_1.s AS s,4885219 AS p,21637133 AS o FROM t_21637133 AS tt_1 ) UNION 
(SELECT DISTINCT tt_1.s AS s,4885219 AS p,4057117 AS o FROM t_4057117 AS tt_1 ) UNION 
(SELECT DISTINCT tt_1.s AS s,4885219 AS p,22507034 AS o FROM t_22507034 AS tt_1 ) UNION 
(SELECT DISTINCT tt_1.s AS s,4885219 AS p,26047100 AS o FROM t_26047100 AS tt_1 ) UNION 
(SELECT DISTINCT tt_1.s AS s,4885219 AS p,24830358 AS o FROM t_24830358 AS tt_1 ) UNION 
(SELECT DISTINCT tt_1.s AS s,4885219 AS p,12718960 AS o FROM t_12718960 AS tt_1 ) UNION 
(SELECT DISTINCT tt_1.s AS s,8759755 AS p,tt_1.o AS o FROM t_8759755 AS tt_1 ) UNION 
(SELECT DISTINCT tt_1.s AS s,4885219 AS p,3921200 AS o FROM t_3921200 AS tt_1 ) UNION 
(SELECT DISTINCT tt_1.s AS s,8165516 AS p,tt_1.o AS o FROM t_8165516 AS tt_1 ) UNION 
(SELECT DISTINCT tt_1.s AS s,22117849 AS p,tt_1.o AS o FROM t_22117849 AS tt_1 ) UNION 
(SELECT DISTINCT tt_1.s AS s,16328923 AS p,tt_1.o AS o FROM t_16328923 AS tt_1 ) UNION 
(SELECT DISTINCT tt_1.s AS s,1014951 AS p,tt_1.o AS o FROM t_1014951 AS tt_1 ) UNION 
(SELECT DISTINCT tt_1.s AS s,4885219 AS p,8007989 AS o FROM t_8007989 AS tt_1 ) UNION 
(SELECT DISTINCT tt_1.s AS s,4885219 AS p,2299993 AS o FROM t_2299993 AS tt_1 ) UNION 
(SELECT DISTINCT tt_1.s AS s,1896150 AS p,tt_1.o AS o FROM t_1896150 AS tt_1 ) UNION 
(SELECT DISTINCT tt_1.s AS s,4885219 AS p,16367420 AS o FROM t_16367420 AS tt_1 ) UNION 
(SELECT DISTINCT tt_1.s AS s,993705 AS p,tt_1.o AS o FROM t_993705 AS tt_1 ) UNION 
(SELECT DISTINCT tt_1.s AS s,4885219 AS p,22142086 AS o FROM t_22142086 AS tt_1 ) UNION 
(SELECT DISTINCT tt_1.s AS s,4885219 AS p,3488252 AS o FROM t_3488252 AS tt_1 ) UNION 
(SELECT DISTINCT tt_1.s AS s,4885219 AS p,2986219 AS o FROM t_2986219 AS tt_1 ) UNION 
(SELECT DISTINCT tt_1.s AS s,12637441 AS p,tt_1.o AS o FROM t_12637441 AS tt_1 ) UNION 
(SELECT DISTINCT tt_1.s AS s,14400976 AS p,tt_1.o AS o FROM t_14400976 AS tt_1 ) UNION 
(SELECT DISTINCT tt_1.s AS s,4885219 AS p,16102024 AS o FROM t_16102024 AS tt_1 ) UNION 
(SELECT DISTINCT tt_1.s AS s,4885219 AS p,22556651 AS o FROM t_22556651 AS tt_1 ) UNION 
(SELECT DISTINCT tt_1.s AS s,4885219 AS p,22676495 AS o FROM t_22676495 AS tt_1 ) UNION 
(SELECT DISTINCT tt_1.s AS s,4885219 AS p,3811189 AS o FROM t_3811189 AS tt_1 ) UNION 
(SELECT DISTINCT tt_1.s AS s,4885219 AS p,14336006 AS o FROM t_14336006 AS tt_1 ) UNION 
(SELECT DISTINCT tt_1.s AS s,4885219 AS p,21986346 AS o FROM t_21986346 AS tt_1 ) UNION 
(SELECT DISTINCT tt_1.s AS s,4885219 AS p,11571344 AS o FROM t_11571344 AS tt_1 ) UNION 
(SELECT DISTINCT tt_1.s AS s,4885219 AS p,739164 AS o FROM t_739164 AS tt_1 ) UNION 
(SELECT DISTINCT tt_1.s AS s,20166987 AS p,tt_1.o AS o FROM t_20166987 AS tt_1 ) UNION 
(SELECT DISTINCT tt_1.s AS s,11291713 AS p,tt_1.o AS o FROM t_11291713 AS tt_1 ) UNION 
(SELECT DISTINCT tt_1.s AS s,4885219 AS p,1372787 AS o FROM t_1372787 AS tt_1 ) UNION 
(SELECT DISTINCT tt_1.s AS s,6997397 AS p,tt_1.o AS o FROM t_6997397 AS tt_1 ) UNION 
(SELECT DISTINCT tt_1.s AS s,683207 AS p,tt_1.o AS o FROM t_683207 AS tt_1 ) UNION 
(SELECT DISTINCT tt_1.s AS s,19388482 AS p,tt_1.o AS o FROM t_19388482 AS tt_1 ) UNION 
(SELECT DISTINCT tt_1.s AS s,4885219 AS p,23915985 AS o FROM t_23915985 AS tt_1 ) UNION 
(SELECT DISTINCT tt_1.s AS s,4885219 AS p,17619698 AS o FROM t_17619698 AS tt_1 ) UNION 
(SELECT DISTINCT tt_1.s AS s,4885219 AS p,25234334 AS o FROM t_25234334 AS tt_1 ) UNION 
(SELECT DISTINCT tt_1.s AS s,17292348 AS p,tt_1.o AS o FROM t_17292348 AS tt_1 ) UNION 
(SELECT DISTINCT tt_1.s AS s,13953271 AS p,tt_1.o AS o FROM t_13953271 AS tt_1 ) UNION 
(SELECT DISTINCT tt_1.s AS s,4885219 AS p,1802885 AS o FROM t_1802885 AS tt_1 ) UNION 
(SELECT DISTINCT tt_1.s AS s,9725923 AS p,tt_1.o AS o FROM t_9725923 AS tt_1 ) UNION 
(SELECT DISTINCT tt_1.s AS s,4885219 AS p,8727249 AS o FROM t_8727249 AS tt_1 ) UNION 
(SELECT DISTINCT tt_1.s AS s,4885219 AS p,21648803 AS o FROM t_21648803 AS tt_1 ) UNION 
(SELECT DISTINCT tt_1.s AS s,4885219 AS p,21996890 AS o FROM t_21996890 AS tt_1 ) UNION 
(SELECT DISTINCT tt_1.s AS s,4885219 AS p,22651863 AS o FROM t_22651863 AS tt_1 ) UNION 
(SELECT DISTINCT tt_1.s AS s,4885219 AS p,18220402 AS o FROM t_18220402 AS tt_1 ) UNION 
(SELECT DISTINCT tt_1.s AS s,2486984 AS p,tt_1.o AS o FROM t_2486984 AS tt_1 ) UNION 
(SELECT DISTINCT tt_1.s AS s,13424281 AS p,tt_1.o AS o FROM t_13424281 AS tt_1 ) UNION 
(SELECT DISTINCT tt_1.s AS s,4885219 AS p,7574933 AS o FROM t_7574933 AS tt_1 ) UNION 
(SELECT DISTINCT tt_1.s AS s,4885219 AS p,15549960 AS o FROM t_15549960 AS tt_1 )
) SELECT DISTINCT pt6460.s AS att_X,pt6460.p AS att_P,pt6461.p AS att_P1 FROM gen_t AS pt6460,gen_t AS pt6461 WHERE pt6460.o='8189427' AND pt6461.o='8189427' AND pt6461.s=pt6460.s
Q14

0
WITH gen_t AS  ((SELECT DISTINCT tt_1.s AS s,4885219 AS p,22552132 AS o FROM t_22552132 AS tt_1 ) UNION 
(SELECT DISTINCT tt_1.s AS s,4885219 AS p,3492502 AS o FROM t_3492502 AS tt_1 ) UNION 
(SELECT DISTINCT tt_1.s AS s,8759755 AS p,tt_1.o AS o FROM t_8759755 AS tt_1 ) UNION 
(SELECT DISTINCT tt_1.s AS s,13953271 AS p,tt_1.o AS o FROM t_13953271 AS tt_1 ) UNION 
(SELECT DISTINCT tt_1.s AS s,4885219 AS p,13890787 AS o FROM t_13890787 AS tt_1 ) UNION 
(SELECT DISTINCT tt_1.s AS s,4885219 AS p,3849344 AS o FROM t_3849344 AS tt_1 ) UNION 
(SELECT DISTINCT tt_1.s AS s,4885219 AS p,18385456 AS o FROM t_18385456 AS tt_1 ) UNION 
(SELECT DISTINCT tt_1.s AS s,8165516 AS p,tt_1.o AS o FROM t_8165516 AS tt_1 ) UNION 
(SELECT DISTINCT tt_1.s AS s,9725923 AS p,tt_1.o AS o FROM t_9725923 AS tt_1 ) UNION 
(SELECT DISTINCT tt_1.s AS s,22117849 AS p,tt_1.o AS o FROM t_22117849 AS tt_1 ) UNION 
(SELECT DISTINCT tt_1.s AS s,16328923 AS p,tt_1.o AS o FROM t_16328923 AS tt_1 ) UNION 
(SELECT DISTINCT tt_1.s AS s,4885219 AS p,12734835 AS o FROM t_12734835 AS tt_1 ) UNION 
(SELECT DISTINCT tt_1.s AS s,4885219 AS p,2511159 AS o FROM t_2511159 AS tt_1 ) UNION 
(SELECT DISTINCT tt_1.s AS s,1896150 AS p,tt_1.o AS o FROM t_1896150 AS tt_1 ) UNION 
(SELECT DISTINCT tt_1.s AS s,4885219 AS p,1291759 AS o FROM t_1291759 AS tt_1 ) UNION 
(SELECT DISTINCT tt_1.s AS s,4885219 AS p,1479080 AS o FROM t_1479080 AS tt_1 ) UNION 
(SELECT DISTINCT tt_1.s AS s,13424281 AS p,tt_1.o AS o FROM t_13424281 AS tt_1 ) UNION 
(SELECT DISTINCT tt_1.s AS s,2486984 AS p,tt_1.o AS o FROM t_2486984 AS tt_1 ) UNION 
(SELECT DISTINCT tt_1.s AS s,4885219 AS p,8420053 AS o FROM t_8420053 AS tt_1 ) UNION 
(SELECT DISTINCT tt_1.s AS s,4885219 AS p,13372933 AS o FROM t_13372933 AS tt_1 ) UNION 
(SELECT DISTINCT tt_1.s AS s,4885219 AS p,21059061 AS o FROM t_21059061 AS tt_1 ) UNION 
(SELECT DISTINCT tt_1.s AS s,4885219 AS p,21637133 AS o FROM t_21637133 AS tt_1 ) UNION 
(SELECT DISTINCT tt_1.s AS s,4885219 AS p,4057117 AS o FROM t_4057117 AS tt_1 ) UNION 
(SELECT DISTINCT tt_1.s AS s,4885219 AS p,22507034 AS o FROM t_22507034 AS tt_1 ) UNION 
(SELECT DISTINCT tt_1.s AS s,12637441 AS p,tt_1.o AS o FROM t_12637441 AS tt_1 ) UNION 
(SELECT DISTINCT tt_1.s AS s,4885219 AS p,26047100 AS o FROM t_26047100 AS tt_1 ) UNION 
(SELECT DISTINCT tt_1.s AS s,4885219 AS p,24830358 AS o FROM t_24830358 AS tt_1 ) UNION 
(SELECT DISTINCT tt_1.s AS s,4885219 AS p,12718960 AS o FROM t_12718960 AS tt_1 ) UNION 
(SELECT DISTINCT tt_1.s AS s,4885219 AS p,3921200 AS o FROM t_3921200 AS tt_1 ) UNION 
(SELECT DISTINCT tt_1.s AS s,4885219 AS p,8007989 AS o FROM t_8007989 AS tt_1 ) UNION 
(SELECT DISTINCT tt_1.s AS s,4885219 AS p,2299993 AS o FROM t_2299993 AS tt_1 ) UNION 
(SELECT DISTINCT tt_1.s AS s,8852250 AS p,tt_1.o AS o FROM t_8852250 AS tt_1 ) UNION 
(SELECT DISTINCT tt_1.s AS s,4885219 AS p,16367420 AS o FROM t_16367420 AS tt_1 ) UNION 
(SELECT DISTINCT tt_1.s AS s,20166987 AS p,tt_1.o AS o FROM t_20166987 AS tt_1 ) UNION 
(SELECT DISTINCT tt_1.s AS s,4885219 AS p,22142086 AS o FROM t_22142086 AS tt_1 ) UNION 
(SELECT DISTINCT tt_1.s AS s,11291713 AS p,tt_1.o AS o FROM t_11291713 AS tt_1 ) UNION 
(SELECT DISTINCT tt_1.s AS s,6482488 AS p,tt_1.o AS o FROM t_6482488 AS tt_1 ) UNION 
(SELECT DISTINCT tt_1.s AS s,4885219 AS p,3488252 AS o FROM t_3488252 AS tt_1 ) UNION 
(SELECT DISTINCT tt_1.s AS s,19388482 AS p,tt_1.o AS o FROM t_19388482 AS tt_1 ) UNION 
(SELECT DISTINCT tt_1.s AS s,4885219 AS p,2986219 AS o FROM t_2986219 AS tt_1 ) UNION 
(SELECT DISTINCT tt_1.s AS s,4885219 AS p,16102024 AS o FROM t_16102024 AS tt_1 ) UNION 
(SELECT DISTINCT tt_1.s AS s,4885219 AS p,22556651 AS o FROM t_22556651 AS tt_1 ) UNION 
(SELECT DISTINCT tt_1.s AS s,4885219 AS p,22676495 AS o FROM t_22676495 AS tt_1 ) UNION 
(SELECT DISTINCT tt_1.s AS s,17292348 AS p,tt_1.o AS o FROM t_17292348 AS tt_1 ) UNION 
(SELECT DISTINCT tt_1.s AS s,4885219 AS p,3811189 AS o FROM t_3811189 AS tt_1 ) UNION 
(SELECT DISTINCT tt_1.s AS s,4885219 AS p,14336006 AS o FROM t_14336006 AS tt_1 ) UNION 
(SELECT DISTINCT tt_1.s AS s,4885219 AS p,21986346 AS o FROM t_21986346 AS tt_1 ) UNION 
(SELECT DISTINCT tt_1.s AS s,1014951 AS p,tt_1.o AS o FROM t_1014951 AS tt_1 ) UNION 
(SELECT DISTINCT tt_1.s AS s,4885219 AS p,11571344 AS o FROM t_11571344 AS tt_1 ) UNION 
(SELECT DISTINCT tt_1.s AS s,4885219 AS p,739164 AS o FROM t_739164 AS tt_1 ) UNION 
(SELECT DISTINCT tt_1.s AS s,993705 AS p,tt_1.o AS o FROM t_993705 AS tt_1 ) UNION 
(SELECT DISTINCT tt_1.s AS s,4885219 AS p,1372787 AS o FROM t_1372787 AS tt_1 ) UNION 
(SELECT DISTINCT tt_1.s AS s,4885219 AS p,23915985 AS o FROM t_23915985 AS tt_1 ) UNION 
(SELECT DISTINCT tt_1.s AS s,4885219 AS p,17619698 AS o FROM t_17619698 AS tt_1 ) UNION 
(SELECT DISTINCT tt_1.s AS s,14400976 AS p,tt_1.o AS o FROM t_14400976 AS tt_1 ) UNION 
(SELECT DISTINCT tt_1.s AS s,4885219 AS p,25234334 AS o FROM t_25234334 AS tt_1 ) UNION 
(SELECT DISTINCT tt_1.s AS s,2153909 AS p,tt_1.o AS o FROM t_2153909 AS tt_1 ) UNION 
(SELECT DISTINCT tt_1.s AS s,4885219 AS p,1802885 AS o FROM t_1802885 AS tt_1 ) UNION 
(SELECT DISTINCT tt_1.s AS s,4885219 AS p,8727249 AS o FROM t_8727249 AS tt_1 ) UNION 
(SELECT DISTINCT tt_1.s AS s,4885219 AS p,21648803 AS o FROM t_21648803 AS tt_1 ) UNION 
(SELECT DISTINCT tt_1.s AS s,16561279 AS p,tt_1.o AS o FROM t_16561279 AS tt_1 ) UNION 
(SELECT DISTINCT tt_1.s AS s,4885219 AS p,21996890 AS o FROM t_21996890 AS tt_1 ) UNION 
(SELECT DISTINCT tt_1.s AS s,4885219 AS p,22651863 AS o FROM t_22651863 AS tt_1 ) UNION 
(SELECT DISTINCT tt_1.s AS s,4885219 AS p,18220402 AS o FROM t_18220402 AS tt_1 ) UNION 
(SELECT DISTINCT tt_1.s AS s,4885219 AS p,7574933 AS o FROM t_7574933 AS tt_1 ) UNION 
(SELECT DISTINCT tt_1.s AS s,6997397 AS p,tt_1.o AS o FROM t_6997397 AS tt_1 ) UNION 
(SELECT DISTINCT tt_1.s AS s,683207 AS p,tt_1.o AS o FROM t_683207 AS tt_1 ) UNION 
(SELECT DISTINCT tt_1.s AS s,4885219 AS p,15549960 AS o FROM t_15549960 AS tt_1 )
) SELECT DISTINCT pt6999.s AS att_X,pt7000.o AS att_Y,pt6999.p AS att_P FROM gen_t AS pt6999,t_2486984 AS pt7000,gen_t AS pt7001 WHERE pt6999.p=pt7001.p AND pt6999.s=pt7000.s AND pt7001.s=pt7000.o AND pt6999.o=pt7001.o
